Timestamp:6/9/2020 8:50:25 AM	Severity:Information	Message:Account-GetMemberInfo	Execute Time:0.634	SQL:     SELECT     acc.id,     acc.fingerprint_id,     acc.staff_id,     acc.staff_name,     acc.email,     acc.sex,     acc.division_id,     acc.admin_flg,     acc.joined_date,     acc.resign_date,     acc.face_url,     acc.person_id,     acc.persisted_face_id,     acc.created_date,     acc.created_account_id,     acc.updated_date,     acc.updated_account_id,     acc.deleted_date,     acc.deleted_account_id,     cpn.admin_company_flg as company_admin_flg,     cpn.id as company_id     FROM account acc     INNER JOIN division div ON acc.division_id = div.id AND acc.deleted_date IS NULL AND div.deleted_date IS NULL     INNER JOIN company cpn ON cpn.id = div.company_id AND cpn.deleted_date IS NULL AND div.deleted_date IS NULL     WHERE        (acc.deleted_date is null or acc.deleted_date = '') AND         acc.email = @email AND         cpn.id = 1 AND ( cpn.valid_date IS NULL OR valid_date >= GETDATE())	Param:@email-bw.test.kanri@gmail.com-[AnsiString]	IP Address:::1	User:
Timestamp:6/9/2020 8:50:26 AM	Severity:Information	Message:Account-GetAccountByCondition	Execute Time:0.031	SQL:     SELECT     acc.id,     acc.fingerprint_id,     acc.staff_id,     acc.staff_name,     acc.sex,     acc.division_id,     div.div_name as division_name,     acc.email,     acc.admin_flg,     acc.joined_date,     acc.resign_date,     acc.face_url,     acc.person_id,     acc.persisted_face_id,     acc.created_date,     acc.created_account_id,     acc.updated_date,     acc.updated_account_id,     acc.deleted_date,     acc.deleted_account_id     FROM account acc     LEFT JOIN fingerprint fp ON fp.id = acc.fingerprint_id AND (fp.deleted_date is null OR fp.deleted_date = '')     JOIN division div on acc.division_id = div.id AND div.company_id = @company_id AND div.deleted_date is null     WHERE (acc.deleted_date is null OR acc.deleted_date = '')     ORDER BY acc.division_id	Param:@company_id-1-[StringFixedLength]	IP Address:::1	User:
Timestamp:6/9/2020 8:50:27 AM	Severity:Information	Message:WorkingtimeRecord-GetWorkTimeByAccount	Execute Time:0.028	SQL:     select     id     ,account_id     ,register_date     ,account_paid_holiday_id     ,expect_start_time     ,expect_end_time     ,device_start_time     ,device_end_time     ,actual_start_time     ,actual_end_time     ,rest_time     ,additional_rest_time     ,overtime_record_id     ,created_date     ,created_account_id     ,updated_date     ,updated_account_id     ,deleted_date     ,deleted_account_id      from workingtime_record WTR WHERE        (WTR.deleted_date is null or WTR.deleted_date = '') AND         account_id = @account_id AND         register_date = CAST(@datetime AS DATE)	Param:@account_id-81-[AnsiString],@datetime-6/9/2020 8:50:26 AM-[AnsiString]	IP Address:::1	User:
Timestamp:6/9/2020 8:50:27 AM	Severity:Information	Message:Announcement-GetAnnouncement	Execute Time:0.056	SQL:     SELECT act.id     ,act.title     ,act.description     ,act.created_date     ,act.created_account_id     ,act.updated_date     ,act.updated_account_id     ,act.deleted_date     ,act.deleted_account_id     ,act.post_date     ,act.draft_flg     ,acc.email AS email     ,act.company_id     FROM announcement act     LEFT JOIN account acc ON acc.id = act.updated_account_id     WHERE act.company_id = @company_id     ORDER BY CONVERT(datetime, act.updated_date ) DESC	Param:@company_id-1-[Decimal]	IP Address:::1	User:
Timestamp:6/9/2020 8:50:38 AM	Severity:Information	Message:Announcement-GetApproveWaiting	Execute Time:8.431	SQL:     DECLARE     @staff_check TABLE (      application_id INT      ,application_form_id INT      , check_sequence INT      )     INSERT INTO @staff_check     SELECT     conf.application_id      AS application_id     , conf.application_form_id AS application_form_id     , conf.check_sequence      AS check_sequence     FROM     confirmation conf     WHERE     (     conf.account_id    = @account_id OR       conf.account_id = 0     )     AND (conf.check_status       = 0 OR conf.check_status       = 3)     AND conf.deleted_date IS NULL     AND application_sequence    =     (     SELECT     MAX(application_sequence)     FROM     confirmation     WHERE     application_id = conf.application_id     )       SELECT     ISNULL(wkt.register_date,aph.application_datetime) AS register_date     , ISNULL(wkt.account_id,aph.account_id)              AS account_id     , tbl.application_form_id                            As application_form_id     , CASE     WHEN tbl.check_sequence = 1 AND tbl.application_form_id = 0     THEN 1     WHEN     (     SELECT     TOP 1 check_sequence     FROM     confirmation     WHERE     application_id = tbl.application_id     AND ( deleted_date IS NULL OR deleted_date    = '')     AND check_status = 0 OR check_status = 3     GROUP BY application_sequence,check_sequence     HAVING application_sequence  = MAX(application_sequence)     ORDER BY     check_sequence     )     = tbl.check_sequence     THEN     CASE     WHEN [dbo].[IsReject](tbl.application_id,tbl.application_form_id) = 0     THEN 2     END     ELSE 3     END       AS type_message     , acc.email AS email     FROM     @staff_check tbl     LEFT JOIN     workingtime_record wkt     ON     tbl.application_id          = wkt.id     AND tbl.application_form_id = 0     AND wkt.deleted_date IS NULL     LEFT JOIN     account_paid_holiday aph     ON     tbl.application_id          = aph.id     AND tbl.application_form_id = 2     AND aph.deleted_date IS NULL     LEFT JOIN     account acc     ON     acc.id = ISNULL(wkt.account_id,aph.account_id)     UNION ALL     SELECT     aph.application_datetime as register_date     , aph.account_id      AS account_id     , cf.application_form_id AS application_form_id     , '4' as type_message     , acc.email AS email     FROM     account_paid_holiday  aph inner join confirmation cf on aph.id = cf.application_id and cf.application_form_id = '2' and cf.check_status = '2'     LEFT JOIN account acc ON acc.id = cf.account_id     WHERE     aph.account_id    = @account_id and [dbo].[IsReject](aph.id,'2') = 1     and cf.confirmed_datetime>=  DATEADD(DAY,-7,GETDATE())     AND aph.deleted_date is null and cf.deleted_date is null      UNION ALL     SELECT     wrk.register_date as register_date     , wrk.account_id      AS account_id     , '0' AS application_form_id     , '4' as type_message     , acc.email AS email     FROM     workingtime_record  wrk     inner join(     SELECT  account_id , application_id,confirmed_datetime  FROM                 confirmation cf      WHERE                      cf.application_form_id  = '0'                     and cf.check_status         = '2'      AND  cf.deleted_date        is null       AND application_sequence    =           (                SELECT                     MAX(application_sequence)                FROM                     confirmation                WHERE                     application_id = cf.application_id           )      ) CT ON  wrk.id                      = CT.application_id     LEFT JOIN account acc ON acc.id = CT.account_id     WHERE     wrk.account_id    = @account_id and [dbo].[IsReject](wrk.id,'0') = 1     and CT.confirmed_datetime>= DATEADD(DAY,-7,GETDATE())     AND wrk.deleted_date is null	Param:@account_id-81-[Decimal]	IP Address:::1	User:
Timestamp:6/9/2020 8:50:38 AM	Severity:Information	Message:Account-GetAccountByCondition	Execute Time:0.027	SQL:     SELECT     acc.id,     acc.fingerprint_id,     acc.staff_id,     acc.staff_name,     acc.sex,     acc.division_id,     div.div_name as division_name,     acc.email,     acc.admin_flg,     acc.joined_date,     acc.resign_date,     acc.face_url,     acc.person_id,     acc.persisted_face_id,     acc.created_date,     acc.created_account_id,     acc.updated_date,     acc.updated_account_id,     acc.deleted_date,     acc.deleted_account_id     FROM account acc     LEFT JOIN fingerprint fp ON fp.id = acc.fingerprint_id AND (fp.deleted_date is null OR fp.deleted_date = '')     JOIN division div on acc.division_id = div.id AND div.company_id = @company_id AND div.deleted_date is null     WHERE (acc.deleted_date is null OR acc.deleted_date = '')     ORDER BY acc.division_id	Param:@company_id-1-[StringFixedLength]	IP Address:::1	User:
Timestamp:6/9/2020 8:50:38 AM	Severity:Information	Message:Account-GetAccountByCondition	Execute Time:0.049	SQL:     SELECT     acc.id,     acc.fingerprint_id,     acc.staff_id,     acc.staff_name,     acc.sex,     acc.division_id,     div.div_name as division_name,     acc.email,     acc.admin_flg,     acc.joined_date,     acc.resign_date,     acc.face_url,     acc.person_id,     acc.persisted_face_id,     acc.created_date,     acc.created_account_id,     acc.updated_date,     acc.updated_account_id,     acc.deleted_date,     acc.deleted_account_id     FROM account acc     LEFT JOIN fingerprint fp ON fp.id = acc.fingerprint_id AND (fp.deleted_date is null OR fp.deleted_date = '')     JOIN division div on acc.division_id = div.id AND div.company_id = @company_id AND div.deleted_date is null     WHERE (acc.deleted_date is null OR acc.deleted_date = '')     ORDER BY acc.division_id	Param:@company_id-1-[StringFixedLength]	IP Address:::1	User:
Timestamp:6/9/2020 8:50:38 AM	Severity:Information	Message:Division-GetGroupData	Execute Time:0.028	SQL:     SELECT  node.id AS group_id     ,(SELECT TOP 1 super_parent.id             FROM division super_parent             WHERE super_parent.div_range_from< node.div_range_from AND super_parent.div_range_to> node.div_range_to               AND super_parent.company_id = @company_id            ORDER BY super_parent.div_range_to-node.div_range_to ASC) AS super_group_id     ,COUNT(parent.div_name)-1 AS group_level     ,node.div_name AS group_name      ,node.admin_div_flg AS admin_div_flg     ,acc.staff_id AS responsible_person_staff_id     FROM division AS node INNER JOIN account acc ON node.responsible_staff_id = acc.id,             division AS parent     WHERE parent.deleted_date IS NULL            AND node.deleted_date IS NULL            AND acc.deleted_date IS NULL            AND (node.div_range_from BETWEEN parent.div_range_from AND parent.div_range_to)           AND parent.company_id = @company_id           AND node.company_id = @company_id     GROUP BY node.div_name, node.div_range_from, node.admin_div_flg, node.id, node.responsible_staff_id,acc.staff_id, node.div_range_to     ORDER BY node.div_range_from	Param:@company_id-1-[StringFixedLength]	IP Address:::1	User:
Timestamp:6/9/2020 8:50:38 AM	Severity:Information	Message:Account-GetAccountByCondition	Execute Time:0.029	SQL:     SELECT     acc.id,     acc.fingerprint_id,     acc.staff_id,     acc.staff_name,     acc.sex,     acc.division_id,     div.div_name as division_name,     acc.email,     acc.admin_flg,     acc.joined_date,     acc.resign_date,     acc.face_url,     acc.person_id,     acc.persisted_face_id,     acc.created_date,     acc.created_account_id,     acc.updated_date,     acc.updated_account_id,     acc.deleted_date,     acc.deleted_account_id     FROM account acc     LEFT JOIN fingerprint fp ON fp.id = acc.fingerprint_id AND (fp.deleted_date is null OR fp.deleted_date = '')     JOIN division div on acc.division_id = div.id AND div.company_id = @company_id AND div.deleted_date is null     WHERE (acc.deleted_date is null OR acc.deleted_date = '')     ORDER BY acc.division_id	Param:@company_id-1-[StringFixedLength]	IP Address:::1	User:
Timestamp:6/9/2020 8:50:39 AM	Severity:Information	Message:FingerPrint-GetFingerPrintList	Execute Time:0.029	SQL:     SELECT     FP.id     ,FP.finger_data     ,FP.salt     ,AC.staff_id     ,FP.created_date     ,FP.created_account_id     ,FP.updated_date     ,FP.updated_account_id     ,FP.deleted_date     ,FP.deleted_account_id     ,FP.company_id     FROM fingerprint FP LEFT JOIN account AC on AC.fingerprint_id = FP.id AND AC.deleted_date is null AND AC.division_id is not null     WHERE (FP.deleted_date is null or FP.deleted_date = '' ) AND       FP.company_id = @company_id	Param:@company_id-1-[StringFixedLength]	IP Address:::1	User:
Timestamp:6/9/2020 8:50:39 AM	Severity:Information	Message:Division-GetDivisionListIdAndName	Execute Time:0.028	SQL:     SELECT CONCAT( REPLICATE( '     ', (COUNT(parent.div_name) - 1) ), node.div_name) AS div_name     ,node.div_range_from     ,node.id as id     ,node.div_range_to     ,node.responsible_staff_id     ,node.admin_div_flg     ,node.description     ,node.company_id     ,node.created_date     ,node.created_account_id     ,node.updated_date     ,node.updated_account_id     ,node.deleted_date     ,node.deleted_account_id     ,0 as div_range_parent     ,null as modify_mode     ,0 as group_id     FROM division AS node,     division AS parent     WHERE (node.div_range_from BETWEEN parent.div_range_from AND parent.div_range_to)      AND (node.deleted_date is null      AND node.deleted_account_id is null)      AND node.company_id = @company_id     GROUP BY node.div_name     ,node.div_range_from     ,node.id     ,node.div_range_to     ,node.responsible_staff_id     ,node.admin_div_flg     ,node.description     ,node.company_id     ,node.created_date     ,node.created_account_id     ,node.updated_account_id     ,node.deleted_date     ,node.deleted_account_id     ,node.updated_date     ORDER BY node.div_range_from	Param:@company_id-1-[StringFixedLength]	IP Address:::1	User:
Timestamp:6/9/2020 5:03:38 PM	Severity:Error	Message:Account-GetMemberInfo	Execute Time:	SQL:     SELECT     acc.id,     acc.fingerprint_id,     acc.staff_id,     acc.staff_name,     acc.email,     acc.sex,     acc.division_id,     acc.admin_flg,     acc.joined_date,     acc.resign_date,     acc.face_url,     acc.person_id,     acc.persisted_person_id,     acc.created_date,     acc.created_account_id,     acc.updated_date,     acc.updated_account_id,     acc.deleted_date,     acc.deleted_account_id,     cpn.admin_company_flg as company_admin_flg,     cpn.id as company_id     FROM account acc     INNER JOIN division div ON acc.division_id = div.id AND acc.deleted_date IS NULL AND div.deleted_date IS NULL     INNER JOIN company cpn ON cpn.id = div.company_id AND cpn.deleted_date IS NULL AND div.deleted_date IS NULL     WHERE        (acc.deleted_date is null or acc.deleted_date = '') AND         acc.email = @email AND         cpn.id = 1 AND ( cpn.valid_date IS NULL OR valid_date >= GETDATE())	Param:@email-bw.test.kanri@gmail.com-[AnsiString]	IP Address:::1	User:	Exception Message:Invalid column name 'persisted_person_id'.
Timestamp:6/9/2020 5:11:36 PM	Severity:Information	Message:Account-GetMemberInfo	Execute Time:0.525	SQL:     SELECT     acc.id,     acc.fingerprint_id,     acc.staff_id,     acc.staff_name,     acc.email,     acc.sex,     acc.division_id,     acc.admin_flg,     acc.joined_date,     acc.resign_date,     acc.face_url,     acc.person_id,     acc.persisted_face_id,     acc.created_date,     acc.created_account_id,     acc.updated_date,     acc.updated_account_id,     acc.deleted_date,     acc.deleted_account_id,     cpn.admin_company_flg as company_admin_flg,     cpn.id as company_id     FROM account acc     INNER JOIN division div ON acc.division_id = div.id AND acc.deleted_date IS NULL AND div.deleted_date IS NULL     INNER JOIN company cpn ON cpn.id = div.company_id AND cpn.deleted_date IS NULL AND div.deleted_date IS NULL     WHERE        (acc.deleted_date is null or acc.deleted_date = '') AND         acc.email = @email AND         cpn.id = 1 AND ( cpn.valid_date IS NULL OR valid_date >= GETDATE())	Param:@email-bw.test.kanri@gmail.com-[AnsiString]	IP Address:::1	User:
Timestamp:6/9/2020 5:11:37 PM	Severity:Information	Message:Account-GetAccountByCondition	Execute Time:0.082	SQL:     SELECT     acc.id,     acc.fingerprint_id,     acc.staff_id,     acc.staff_name,     acc.sex,     acc.division_id,     div.div_name as division_name,     acc.email,     acc.admin_flg,     acc.joined_date,     acc.resign_date,     acc.face_url,     acc.person_id,     acc.persisted_face_id,     acc.created_date,     acc.created_account_id,     acc.updated_date,     acc.updated_account_id,     acc.deleted_date,     acc.deleted_account_id     FROM account acc     LEFT JOIN fingerprint fp ON fp.id = acc.fingerprint_id AND (fp.deleted_date is null OR fp.deleted_date = '')     JOIN division div on acc.division_id = div.id AND div.company_id = @company_id AND div.deleted_date is null     WHERE (acc.deleted_date is null OR acc.deleted_date = '')     ORDER BY acc.division_id	Param:@company_id-1-[StringFixedLength]	IP Address:::1	User:
Timestamp:6/9/2020 5:11:37 PM	Severity:Information	Message:WorkingtimeRecord-GetWorkTimeByAccount	Execute Time:0.060	SQL:     select     id     ,account_id     ,register_date     ,account_paid_holiday_id     ,expect_start_time     ,expect_end_time     ,device_start_time     ,device_end_time     ,actual_start_time     ,actual_end_time     ,rest_time     ,additional_rest_time     ,overtime_record_id     ,created_date     ,created_account_id     ,updated_date     ,updated_account_id     ,deleted_date     ,deleted_account_id      from workingtime_record WTR WHERE        (WTR.deleted_date is null or WTR.deleted_date = '') AND         account_id = @account_id AND         register_date = CAST(@datetime AS DATE)	Param:@account_id-81-[AnsiString],@datetime-6/9/2020 5:11:37 PM-[AnsiString]	IP Address:::1	User:
Timestamp:6/9/2020 5:11:37 PM	Severity:Information	Message:Announcement-GetAnnouncement	Execute Time:0.097	SQL:     SELECT act.id     ,act.title     ,act.description     ,act.created_date     ,act.created_account_id     ,act.updated_date     ,act.updated_account_id     ,act.deleted_date     ,act.deleted_account_id     ,act.post_date     ,act.draft_flg     ,acc.email AS email     ,act.company_id     FROM announcement act     LEFT JOIN account acc ON acc.id = act.updated_account_id     WHERE act.company_id = @company_id     ORDER BY CONVERT(datetime, act.updated_date ) DESC	Param:@company_id-1-[Decimal]	IP Address:::1	User:
Timestamp:6/9/2020 5:11:47 PM	Severity:Information	Message:Announcement-GetApproveWaiting	Execute Time:8.599	SQL:     DECLARE     @staff_check TABLE (      application_id INT      ,application_form_id INT      , check_sequence INT      )     INSERT INTO @staff_check     SELECT     conf.application_id      AS application_id     , conf.application_form_id AS application_form_id     , conf.check_sequence      AS check_sequence     FROM     confirmation conf     WHERE     (     conf.account_id    = @account_id OR       conf.account_id = 0     )     AND (conf.check_status       = 0 OR conf.check_status       = 3)     AND conf.deleted_date IS NULL     AND application_sequence    =     (     SELECT     MAX(application_sequence)     FROM     confirmation     WHERE     application_id = conf.application_id     )       SELECT     ISNULL(wkt.register_date,aph.application_datetime) AS register_date     , ISNULL(wkt.account_id,aph.account_id)              AS account_id     , tbl.application_form_id                            As application_form_id     , CASE     WHEN tbl.check_sequence = 1 AND tbl.application_form_id = 0     THEN 1     WHEN     (     SELECT     TOP 1 check_sequence     FROM     confirmation     WHERE     application_id = tbl.application_id     AND ( deleted_date IS NULL OR deleted_date    = '')     AND check_status = 0 OR check_status = 3     GROUP BY application_sequence,check_sequence     HAVING application_sequence  = MAX(application_sequence)     ORDER BY     check_sequence     )     = tbl.check_sequence     THEN     CASE     WHEN [dbo].[IsReject](tbl.application_id,tbl.application_form_id) = 0     THEN 2     END     ELSE 3     END       AS type_message     , acc.email AS email     FROM     @staff_check tbl     LEFT JOIN     workingtime_record wkt     ON     tbl.application_id          = wkt.id     AND tbl.application_form_id = 0     AND wkt.deleted_date IS NULL     LEFT JOIN     account_paid_holiday aph     ON     tbl.application_id          = aph.id     AND tbl.application_form_id = 2     AND aph.deleted_date IS NULL     LEFT JOIN     account acc     ON     acc.id = ISNULL(wkt.account_id,aph.account_id)     UNION ALL     SELECT     aph.application_datetime as register_date     , aph.account_id      AS account_id     , cf.application_form_id AS application_form_id     , '4' as type_message     , acc.email AS email     FROM     account_paid_holiday  aph inner join confirmation cf on aph.id = cf.application_id and cf.application_form_id = '2' and cf.check_status = '2'     LEFT JOIN account acc ON acc.id = cf.account_id     WHERE     aph.account_id    = @account_id and [dbo].[IsReject](aph.id,'2') = 1     and cf.confirmed_datetime>=  DATEADD(DAY,-7,GETDATE())     AND aph.deleted_date is null and cf.deleted_date is null      UNION ALL     SELECT     wrk.register_date as register_date     , wrk.account_id      AS account_id     , '0' AS application_form_id     , '4' as type_message     , acc.email AS email     FROM     workingtime_record  wrk     inner join(     SELECT  account_id , application_id,confirmed_datetime  FROM                 confirmation cf      WHERE                      cf.application_form_id  = '0'                     and cf.check_status         = '2'      AND  cf.deleted_date        is null       AND application_sequence    =           (                SELECT                     MAX(application_sequence)                FROM                     confirmation                WHERE                     application_id = cf.application_id           )      ) CT ON  wrk.id                      = CT.application_id     LEFT JOIN account acc ON acc.id = CT.account_id     WHERE     wrk.account_id    = @account_id and [dbo].[IsReject](wrk.id,'0') = 1     and CT.confirmed_datetime>= DATEADD(DAY,-7,GETDATE())     AND wrk.deleted_date is null	Param:@account_id-81-[Decimal]	IP Address:::1	User:
Timestamp:6/9/2020 5:11:48 PM	Severity:Information	Message:Account-GetAccountByCondition	Execute Time:0.051	SQL:     SELECT     acc.id,     acc.fingerprint_id,     acc.staff_id,     acc.staff_name,     acc.sex,     acc.division_id,     div.div_name as division_name,     acc.email,     acc.admin_flg,     acc.joined_date,     acc.resign_date,     acc.face_url,     acc.person_id,     acc.persisted_face_id,     acc.created_date,     acc.created_account_id,     acc.updated_date,     acc.updated_account_id,     acc.deleted_date,     acc.deleted_account_id     FROM account acc     LEFT JOIN fingerprint fp ON fp.id = acc.fingerprint_id AND (fp.deleted_date is null OR fp.deleted_date = '')     JOIN division div on acc.division_id = div.id AND div.company_id = @company_id AND div.deleted_date is null     WHERE (acc.deleted_date is null OR acc.deleted_date = '')     ORDER BY acc.division_id	Param:@company_id-1-[StringFixedLength]	IP Address:::1	User:
Timestamp:6/9/2020 5:11:48 PM	Severity:Information	Message:Account-GetAccountByCondition	Execute Time:0.047	SQL:     SELECT     acc.id,     acc.fingerprint_id,     acc.staff_id,     acc.staff_name,     acc.sex,     acc.division_id,     div.div_name as division_name,     acc.email,     acc.admin_flg,     acc.joined_date,     acc.resign_date,     acc.face_url,     acc.person_id,     acc.persisted_face_id,     acc.created_date,     acc.created_account_id,     acc.updated_date,     acc.updated_account_id,     acc.deleted_date,     acc.deleted_account_id     FROM account acc     LEFT JOIN fingerprint fp ON fp.id = acc.fingerprint_id AND (fp.deleted_date is null OR fp.deleted_date = '')     JOIN division div on acc.division_id = div.id AND div.company_id = @company_id AND div.deleted_date is null     WHERE (acc.deleted_date is null OR acc.deleted_date = '')     ORDER BY acc.division_id	Param:@company_id-1-[StringFixedLength]	IP Address:::1	User:
Timestamp:6/9/2020 5:11:48 PM	Severity:Information	Message:Division-GetGroupData	Execute Time:0.047	SQL:     SELECT  node.id AS group_id     ,(SELECT TOP 1 super_parent.id             FROM division super_parent             WHERE super_parent.div_range_from< node.div_range_from AND super_parent.div_range_to> node.div_range_to               AND super_parent.company_id = @company_id            ORDER BY super_parent.div_range_to-node.div_range_to ASC) AS super_group_id     ,COUNT(parent.div_name)-1 AS group_level     ,node.div_name AS group_name      ,node.admin_div_flg AS admin_div_flg     ,acc.staff_id AS responsible_person_staff_id     FROM division AS node INNER JOIN account acc ON node.responsible_staff_id = acc.id,             division AS parent     WHERE parent.deleted_date IS NULL            AND node.deleted_date IS NULL            AND acc.deleted_date IS NULL            AND (node.div_range_from BETWEEN parent.div_range_from AND parent.div_range_to)           AND parent.company_id = @company_id           AND node.company_id = @company_id     GROUP BY node.div_name, node.div_range_from, node.admin_div_flg, node.id, node.responsible_staff_id,acc.staff_id, node.div_range_to     ORDER BY node.div_range_from	Param:@company_id-1-[StringFixedLength]	IP Address:::1	User:
Timestamp:6/9/2020 5:11:48 PM	Severity:Information	Message:Account-GetAccountByCondition	Execute Time:0.048	SQL:     SELECT     acc.id,     acc.fingerprint_id,     acc.staff_id,     acc.staff_name,     acc.sex,     acc.division_id,     div.div_name as division_name,     acc.email,     acc.admin_flg,     acc.joined_date,     acc.resign_date,     acc.face_url,     acc.person_id,     acc.persisted_face_id,     acc.created_date,     acc.created_account_id,     acc.updated_date,     acc.updated_account_id,     acc.deleted_date,     acc.deleted_account_id     FROM account acc     LEFT JOIN fingerprint fp ON fp.id = acc.fingerprint_id AND (fp.deleted_date is null OR fp.deleted_date = '')     JOIN division div on acc.division_id = div.id AND div.company_id = @company_id AND div.deleted_date is null     WHERE (acc.deleted_date is null OR acc.deleted_date = '')     ORDER BY acc.division_id	Param:@company_id-1-[StringFixedLength]	IP Address:::1	User:
Timestamp:6/9/2020 5:11:48 PM	Severity:Information	Message:FingerPrint-GetFingerPrintList	Execute Time:0.048	SQL:     SELECT     FP.id     ,FP.finger_data     ,FP.salt     ,AC.staff_id     ,FP.created_date     ,FP.created_account_id     ,FP.updated_date     ,FP.updated_account_id     ,FP.deleted_date     ,FP.deleted_account_id     ,FP.company_id     FROM fingerprint FP LEFT JOIN account AC on AC.fingerprint_id = FP.id AND AC.deleted_date is null AND AC.division_id is not null     WHERE (FP.deleted_date is null or FP.deleted_date = '' ) AND       FP.company_id = @company_id	Param:@company_id-1-[StringFixedLength]	IP Address:::1	User:
Timestamp:6/9/2020 5:11:48 PM	Severity:Information	Message:Division-GetDivisionListIdAndName	Execute Time:0.048	SQL:     SELECT CONCAT( REPLICATE( '     ', (COUNT(parent.div_name) - 1) ), node.div_name) AS div_name     ,node.div_range_from     ,node.id as id     ,node.div_range_to     ,node.responsible_staff_id     ,node.admin_div_flg     ,node.description     ,node.company_id     ,node.created_date     ,node.created_account_id     ,node.updated_date     ,node.updated_account_id     ,node.deleted_date     ,node.deleted_account_id     ,0 as div_range_parent     ,null as modify_mode     ,0 as group_id     FROM division AS node,     division AS parent     WHERE (node.div_range_from BETWEEN parent.div_range_from AND parent.div_range_to)      AND (node.deleted_date is null      AND node.deleted_account_id is null)      AND node.company_id = @company_id     GROUP BY node.div_name     ,node.div_range_from     ,node.id     ,node.div_range_to     ,node.responsible_staff_id     ,node.admin_div_flg     ,node.description     ,node.company_id     ,node.created_date     ,node.created_account_id     ,node.updated_account_id     ,node.deleted_date     ,node.deleted_account_id     ,node.updated_date     ORDER BY node.div_range_from	Param:@company_id-1-[StringFixedLength]	IP Address:::1	User:
Timestamp:6/9/2020 5:12:18 PM	Severity:Information	Message:Account-GetMemberInfo	Execute Time:0.047	SQL:     SELECT     acc.id,     acc.fingerprint_id,     acc.staff_id,     acc.staff_name,     acc.email,     acc.sex,     acc.division_id,     acc.admin_flg,     acc.joined_date,     acc.resign_date,     acc.face_url,     acc.person_id,     acc.persisted_face_id,     acc.created_date,     acc.created_account_id,     acc.updated_date,     acc.updated_account_id,     acc.deleted_date,     acc.deleted_account_id,     cpn.admin_company_flg as company_admin_flg,     cpn.id as company_id     FROM account acc     INNER JOIN division div ON acc.division_id = div.id AND acc.deleted_date IS NULL AND div.deleted_date IS NULL     INNER JOIN company cpn ON cpn.id = div.company_id AND cpn.deleted_date IS NULL AND div.deleted_date IS NULL     WHERE        (acc.deleted_date is null or acc.deleted_date = '') AND         acc.email = @email AND         cpn.id = 1 AND ( cpn.valid_date IS NULL OR valid_date >= GETDATE())	Param:@email-bw.test.kanri@gmail.com-[AnsiString]	IP Address:::1	User:
Timestamp:6/9/2020 5:12:18 PM	Severity:Information	Message:Account-GetAccountByCondition	Execute Time:0.048	SQL:     SELECT     acc.id,     acc.fingerprint_id,     acc.staff_id,     acc.staff_name,     acc.sex,     acc.division_id,     div.div_name as division_name,     acc.email,     acc.admin_flg,     acc.joined_date,     acc.resign_date,     acc.face_url,     acc.person_id,     acc.persisted_face_id,     acc.created_date,     acc.created_account_id,     acc.updated_date,     acc.updated_account_id,     acc.deleted_date,     acc.deleted_account_id     FROM account acc     LEFT JOIN fingerprint fp ON fp.id = acc.fingerprint_id AND (fp.deleted_date is null OR fp.deleted_date = '')     JOIN division div on acc.division_id = div.id AND div.company_id = @company_id AND div.deleted_date is null     WHERE (acc.deleted_date is null OR acc.deleted_date = '')     ORDER BY acc.division_id	Param:@company_id-1-[StringFixedLength]	IP Address:::1	User:
Timestamp:6/9/2020 5:12:18 PM	Severity:Information	Message:WorkingtimeRecord-GetWorkTimeByAccount	Execute Time:0.129	SQL:     select     id     ,account_id     ,register_date     ,account_paid_holiday_id     ,expect_start_time     ,expect_end_time     ,device_start_time     ,device_end_time     ,actual_start_time     ,actual_end_time     ,rest_time     ,additional_rest_time     ,overtime_record_id     ,created_date     ,created_account_id     ,updated_date     ,updated_account_id     ,deleted_date     ,deleted_account_id      from workingtime_record WTR WHERE        (WTR.deleted_date is null or WTR.deleted_date = '') AND         account_id = @account_id AND         register_date = CAST(@datetime AS DATE)	Param:@account_id-81-[AnsiString],@datetime-6/9/2020 5:12:18 PM-[AnsiString]	IP Address:::1	User:
Timestamp:6/9/2020 5:12:18 PM	Severity:Information	Message:Announcement-GetAnnouncement	Execute Time:0.052	SQL:     SELECT act.id     ,act.title     ,act.description     ,act.created_date     ,act.created_account_id     ,act.updated_date     ,act.updated_account_id     ,act.deleted_date     ,act.deleted_account_id     ,act.post_date     ,act.draft_flg     ,acc.email AS email     ,act.company_id     FROM announcement act     LEFT JOIN account acc ON acc.id = act.updated_account_id     WHERE act.company_id = @company_id     ORDER BY CONVERT(datetime, act.updated_date ) DESC	Param:@company_id-1-[Decimal]	IP Address:::1	User:
Timestamp:6/9/2020 5:12:28 PM	Severity:Information	Message:Announcement-GetApproveWaiting	Execute Time:8.501	SQL:     DECLARE     @staff_check TABLE (      application_id INT      ,application_form_id INT      , check_sequence INT      )     INSERT INTO @staff_check     SELECT     conf.application_id      AS application_id     , conf.application_form_id AS application_form_id     , conf.check_sequence      AS check_sequence     FROM     confirmation conf     WHERE     (     conf.account_id    = @account_id OR       conf.account_id = 0     )     AND (conf.check_status       = 0 OR conf.check_status       = 3)     AND conf.deleted_date IS NULL     AND application_sequence    =     (     SELECT     MAX(application_sequence)     FROM     confirmation     WHERE     application_id = conf.application_id     )       SELECT     ISNULL(wkt.register_date,aph.application_datetime) AS register_date     , ISNULL(wkt.account_id,aph.account_id)              AS account_id     , tbl.application_form_id                            As application_form_id     , CASE     WHEN tbl.check_sequence = 1 AND tbl.application_form_id = 0     THEN 1     WHEN     (     SELECT     TOP 1 check_sequence     FROM     confirmation     WHERE     application_id = tbl.application_id     AND ( deleted_date IS NULL OR deleted_date    = '')     AND check_status = 0 OR check_status = 3     GROUP BY application_sequence,check_sequence     HAVING application_sequence  = MAX(application_sequence)     ORDER BY     check_sequence     )     = tbl.check_sequence     THEN     CASE     WHEN [dbo].[IsReject](tbl.application_id,tbl.application_form_id) = 0     THEN 2     END     ELSE 3     END       AS type_message     , acc.email AS email     FROM     @staff_check tbl     LEFT JOIN     workingtime_record wkt     ON     tbl.application_id          = wkt.id     AND tbl.application_form_id = 0     AND wkt.deleted_date IS NULL     LEFT JOIN     account_paid_holiday aph     ON     tbl.application_id          = aph.id     AND tbl.application_form_id = 2     AND aph.deleted_date IS NULL     LEFT JOIN     account acc     ON     acc.id = ISNULL(wkt.account_id,aph.account_id)     UNION ALL     SELECT     aph.application_datetime as register_date     , aph.account_id      AS account_id     , cf.application_form_id AS application_form_id     , '4' as type_message     , acc.email AS email     FROM     account_paid_holiday  aph inner join confirmation cf on aph.id = cf.application_id and cf.application_form_id = '2' and cf.check_status = '2'     LEFT JOIN account acc ON acc.id = cf.account_id     WHERE     aph.account_id    = @account_id and [dbo].[IsReject](aph.id,'2') = 1     and cf.confirmed_datetime>=  DATEADD(DAY,-7,GETDATE())     AND aph.deleted_date is null and cf.deleted_date is null      UNION ALL     SELECT     wrk.register_date as register_date     , wrk.account_id      AS account_id     , '0' AS application_form_id     , '4' as type_message     , acc.email AS email     FROM     workingtime_record  wrk     inner join(     SELECT  account_id , application_id,confirmed_datetime  FROM                 confirmation cf      WHERE                      cf.application_form_id  = '0'                     and cf.check_status         = '2'      AND  cf.deleted_date        is null       AND application_sequence    =           (                SELECT                     MAX(application_sequence)                FROM                     confirmation                WHERE                     application_id = cf.application_id           )      ) CT ON  wrk.id                      = CT.application_id     LEFT JOIN account acc ON acc.id = CT.account_id     WHERE     wrk.account_id    = @account_id and [dbo].[IsReject](wrk.id,'0') = 1     and CT.confirmed_datetime>= DATEADD(DAY,-7,GETDATE())     AND wrk.deleted_date is null	Param:@account_id-81-[Decimal]	IP Address:::1	User:
Timestamp:6/9/2020 5:12:33 PM	Severity:Information	Message:Account-GetAccountByCondition	Execute Time:0.047	SQL:     SELECT     acc.id,     acc.fingerprint_id,     acc.staff_id,     acc.staff_name,     acc.sex,     acc.division_id,     div.div_name as division_name,     acc.email,     acc.admin_flg,     acc.joined_date,     acc.resign_date,     acc.face_url,     acc.person_id,     acc.persisted_face_id,     acc.created_date,     acc.created_account_id,     acc.updated_date,     acc.updated_account_id,     acc.deleted_date,     acc.deleted_account_id     FROM account acc     LEFT JOIN fingerprint fp ON fp.id = acc.fingerprint_id AND (fp.deleted_date is null OR fp.deleted_date = '')     JOIN division div on acc.division_id = div.id AND div.company_id = @company_id AND div.deleted_date is null     WHERE (acc.deleted_date is null OR acc.deleted_date = '')     ORDER BY acc.division_id	Param:@company_id-1-[StringFixedLength]	IP Address:::1	User:
Timestamp:6/9/2020 5:12:33 PM	Severity:Information	Message:Account-GetAccountByCondition	Execute Time:0.046	SQL:     SELECT     acc.id,     acc.fingerprint_id,     acc.staff_id,     acc.staff_name,     acc.sex,     acc.division_id,     div.div_name as division_name,     acc.email,     acc.admin_flg,     acc.joined_date,     acc.resign_date,     acc.face_url,     acc.person_id,     acc.persisted_face_id,     acc.created_date,     acc.created_account_id,     acc.updated_date,     acc.updated_account_id,     acc.deleted_date,     acc.deleted_account_id     FROM account acc     LEFT JOIN fingerprint fp ON fp.id = acc.fingerprint_id AND (fp.deleted_date is null OR fp.deleted_date = '')     JOIN division div on acc.division_id = div.id AND div.company_id = @company_id AND div.deleted_date is null     WHERE (acc.deleted_date is null OR acc.deleted_date = '')     ORDER BY acc.division_id	Param:@company_id-1-[StringFixedLength]	IP Address:::1	User:
Timestamp:6/9/2020 5:12:33 PM	Severity:Information	Message:Division-GetGroupData	Execute Time:0.047	SQL:     SELECT  node.id AS group_id     ,(SELECT TOP 1 super_parent.id             FROM division super_parent             WHERE super_parent.div_range_from< node.div_range_from AND super_parent.div_range_to> node.div_range_to               AND super_parent.company_id = @company_id            ORDER BY super_parent.div_range_to-node.div_range_to ASC) AS super_group_id     ,COUNT(parent.div_name)-1 AS group_level     ,node.div_name AS group_name      ,node.admin_div_flg AS admin_div_flg     ,acc.staff_id AS responsible_person_staff_id     FROM division AS node INNER JOIN account acc ON node.responsible_staff_id = acc.id,             division AS parent     WHERE parent.deleted_date IS NULL            AND node.deleted_date IS NULL            AND acc.deleted_date IS NULL            AND (node.div_range_from BETWEEN parent.div_range_from AND parent.div_range_to)           AND parent.company_id = @company_id           AND node.company_id = @company_id     GROUP BY node.div_name, node.div_range_from, node.admin_div_flg, node.id, node.responsible_staff_id,acc.staff_id, node.div_range_to     ORDER BY node.div_range_from	Param:@company_id-1-[StringFixedLength]	IP Address:::1	User:
Timestamp:6/9/2020 5:12:38 PM	Severity:Information	Message:Account-GetAccountByCondition	Execute Time:0.049	SQL:     SELECT     acc.id,     acc.fingerprint_id,     acc.staff_id,     acc.staff_name,     acc.sex,     acc.division_id,     div.div_name as division_name,     acc.email,     acc.admin_flg,     acc.joined_date,     acc.resign_date,     acc.face_url,     acc.person_id,     acc.persisted_face_id,     acc.created_date,     acc.created_account_id,     acc.updated_date,     acc.updated_account_id,     acc.deleted_date,     acc.deleted_account_id     FROM account acc     LEFT JOIN fingerprint fp ON fp.id = acc.fingerprint_id AND (fp.deleted_date is null OR fp.deleted_date = '')     JOIN division div on acc.division_id = div.id AND div.company_id = @company_id AND div.deleted_date is null     WHERE (acc.deleted_date is null OR acc.deleted_date = '')     ORDER BY acc.division_id	Param:@company_id-1-[StringFixedLength]	IP Address:::1	User:
Timestamp:6/9/2020 5:12:41 PM	Severity:Information	Message:FingerPrint-GetFingerPrintList	Execute Time:0.117	SQL:     SELECT     FP.id     ,FP.finger_data     ,FP.salt     ,AC.staff_id     ,FP.created_date     ,FP.created_account_id     ,FP.updated_date     ,FP.updated_account_id     ,FP.deleted_date     ,FP.deleted_account_id     ,FP.company_id     FROM fingerprint FP LEFT JOIN account AC on AC.fingerprint_id = FP.id AND AC.deleted_date is null AND AC.division_id is not null     WHERE (FP.deleted_date is null or FP.deleted_date = '' ) AND       FP.company_id = @company_id	Param:@company_id-1-[StringFixedLength]	IP Address:::1	User:
Timestamp:6/9/2020 5:12:43 PM	Severity:Information	Message:Division-GetDivisionListIdAndName	Execute Time:0.047	SQL:     SELECT CONCAT( REPLICATE( '     ', (COUNT(parent.div_name) - 1) ), node.div_name) AS div_name     ,node.div_range_from     ,node.id as id     ,node.div_range_to     ,node.responsible_staff_id     ,node.admin_div_flg     ,node.description     ,node.company_id     ,node.created_date     ,node.created_account_id     ,node.updated_date     ,node.updated_account_id     ,node.deleted_date     ,node.deleted_account_id     ,0 as div_range_parent     ,null as modify_mode     ,0 as group_id     FROM division AS node,     division AS parent     WHERE (node.div_range_from BETWEEN parent.div_range_from AND parent.div_range_to)      AND (node.deleted_date is null      AND node.deleted_account_id is null)      AND node.company_id = @company_id     GROUP BY node.div_name     ,node.div_range_from     ,node.id     ,node.div_range_to     ,node.responsible_staff_id     ,node.admin_div_flg     ,node.description     ,node.company_id     ,node.created_date     ,node.created_account_id     ,node.updated_account_id     ,node.deleted_date     ,node.deleted_account_id     ,node.updated_date     ORDER BY node.div_range_from	Param:@company_id-1-[StringFixedLength]	IP Address:::1	User:
Timestamp:6/9/2020 5:16:40 PM	Severity:Information	Message:Account-GetMemberInfo	Execute Time:0.049	SQL:     SELECT     acc.id,     acc.fingerprint_id,     acc.staff_id,     acc.staff_name,     acc.email,     acc.sex,     acc.division_id,     acc.admin_flg,     acc.joined_date,     acc.resign_date,     acc.face_url,     acc.person_id,     acc.persisted_face_id,     acc.created_date,     acc.created_account_id,     acc.updated_date,     acc.updated_account_id,     acc.deleted_date,     acc.deleted_account_id,     cpn.admin_company_flg as company_admin_flg,     cpn.id as company_id     FROM account acc     INNER JOIN division div ON acc.division_id = div.id AND acc.deleted_date IS NULL AND div.deleted_date IS NULL     INNER JOIN company cpn ON cpn.id = div.company_id AND cpn.deleted_date IS NULL AND div.deleted_date IS NULL     WHERE        (acc.deleted_date is null or acc.deleted_date = '') AND         acc.email = @email AND         cpn.id = 1 AND ( cpn.valid_date IS NULL OR valid_date >= GETDATE())	Param:@email-bw.test.kanri@gmail.com-[AnsiString]	IP Address:::1	User:
Timestamp:6/9/2020 5:16:41 PM	Severity:Information	Message:Account-GetAccountByCondition	Execute Time:0.047	SQL:     SELECT     acc.id,     acc.fingerprint_id,     acc.staff_id,     acc.staff_name,     acc.sex,     acc.division_id,     div.div_name as division_name,     acc.email,     acc.admin_flg,     acc.joined_date,     acc.resign_date,     acc.face_url,     acc.person_id,     acc.persisted_face_id,     acc.created_date,     acc.created_account_id,     acc.updated_date,     acc.updated_account_id,     acc.deleted_date,     acc.deleted_account_id     FROM account acc     LEFT JOIN fingerprint fp ON fp.id = acc.fingerprint_id AND (fp.deleted_date is null OR fp.deleted_date = '')     JOIN division div on acc.division_id = div.id AND div.company_id = @company_id AND div.deleted_date is null     WHERE (acc.deleted_date is null OR acc.deleted_date = '')     ORDER BY acc.division_id	Param:@company_id-1-[StringFixedLength]	IP Address:::1	User:
Timestamp:6/9/2020 5:16:41 PM	Severity:Information	Message:WorkingtimeRecord-GetWorkTimeByAccount	Execute Time:0.050	SQL:     select     id     ,account_id     ,register_date     ,account_paid_holiday_id     ,expect_start_time     ,expect_end_time     ,device_start_time     ,device_end_time     ,actual_start_time     ,actual_end_time     ,rest_time     ,additional_rest_time     ,overtime_record_id     ,created_date     ,created_account_id     ,updated_date     ,updated_account_id     ,deleted_date     ,deleted_account_id      from workingtime_record WTR WHERE        (WTR.deleted_date is null or WTR.deleted_date = '') AND         account_id = @account_id AND         register_date = CAST(@datetime AS DATE)	Param:@account_id-81-[AnsiString],@datetime-6/9/2020 5:16:41 PM-[AnsiString]	IP Address:::1	User:
Timestamp:6/9/2020 5:16:41 PM	Severity:Information	Message:Announcement-GetAnnouncement	Execute Time:0.060	SQL:     SELECT act.id     ,act.title     ,act.description     ,act.created_date     ,act.created_account_id     ,act.updated_date     ,act.updated_account_id     ,act.deleted_date     ,act.deleted_account_id     ,act.post_date     ,act.draft_flg     ,acc.email AS email     ,act.company_id     FROM announcement act     LEFT JOIN account acc ON acc.id = act.updated_account_id     WHERE act.company_id = @company_id     ORDER BY CONVERT(datetime, act.updated_date ) DESC	Param:@company_id-1-[Decimal]	IP Address:::1	User:
Timestamp:6/9/2020 5:16:51 PM	Severity:Information	Message:Announcement-GetApproveWaiting	Execute Time:8.929	SQL:     DECLARE     @staff_check TABLE (      application_id INT      ,application_form_id INT      , check_sequence INT      )     INSERT INTO @staff_check     SELECT     conf.application_id      AS application_id     , conf.application_form_id AS application_form_id     , conf.check_sequence      AS check_sequence     FROM     confirmation conf     WHERE     (     conf.account_id    = @account_id OR       conf.account_id = 0     )     AND (conf.check_status       = 0 OR conf.check_status       = 3)     AND conf.deleted_date IS NULL     AND application_sequence    =     (     SELECT     MAX(application_sequence)     FROM     confirmation     WHERE     application_id = conf.application_id     )       SELECT     ISNULL(wkt.register_date,aph.application_datetime) AS register_date     , ISNULL(wkt.account_id,aph.account_id)              AS account_id     , tbl.application_form_id                            As application_form_id     , CASE     WHEN tbl.check_sequence = 1 AND tbl.application_form_id = 0     THEN 1     WHEN     (     SELECT     TOP 1 check_sequence     FROM     confirmation     WHERE     application_id = tbl.application_id     AND ( deleted_date IS NULL OR deleted_date    = '')     AND check_status = 0 OR check_status = 3     GROUP BY application_sequence,check_sequence     HAVING application_sequence  = MAX(application_sequence)     ORDER BY     check_sequence     )     = tbl.check_sequence     THEN     CASE     WHEN [dbo].[IsReject](tbl.application_id,tbl.application_form_id) = 0     THEN 2     END     ELSE 3     END       AS type_message     , acc.email AS email     FROM     @staff_check tbl     LEFT JOIN     workingtime_record wkt     ON     tbl.application_id          = wkt.id     AND tbl.application_form_id = 0     AND wkt.deleted_date IS NULL     LEFT JOIN     account_paid_holiday aph     ON     tbl.application_id          = aph.id     AND tbl.application_form_id = 2     AND aph.deleted_date IS NULL     LEFT JOIN     account acc     ON     acc.id = ISNULL(wkt.account_id,aph.account_id)     UNION ALL     SELECT     aph.application_datetime as register_date     , aph.account_id      AS account_id     , cf.application_form_id AS application_form_id     , '4' as type_message     , acc.email AS email     FROM     account_paid_holiday  aph inner join confirmation cf on aph.id = cf.application_id and cf.application_form_id = '2' and cf.check_status = '2'     LEFT JOIN account acc ON acc.id = cf.account_id     WHERE     aph.account_id    = @account_id and [dbo].[IsReject](aph.id,'2') = 1     and cf.confirmed_datetime>=  DATEADD(DAY,-7,GETDATE())     AND aph.deleted_date is null and cf.deleted_date is null      UNION ALL     SELECT     wrk.register_date as register_date     , wrk.account_id      AS account_id     , '0' AS application_form_id     , '4' as type_message     , acc.email AS email     FROM     workingtime_record  wrk     inner join(     SELECT  account_id , application_id,confirmed_datetime  FROM                 confirmation cf      WHERE                      cf.application_form_id  = '0'                     and cf.check_status         = '2'      AND  cf.deleted_date        is null       AND application_sequence    =           (                SELECT                     MAX(application_sequence)                FROM                     confirmation                WHERE                     application_id = cf.application_id           )      ) CT ON  wrk.id                      = CT.application_id     LEFT JOIN account acc ON acc.id = CT.account_id     WHERE     wrk.account_id    = @account_id and [dbo].[IsReject](wrk.id,'0') = 1     and CT.confirmed_datetime>= DATEADD(DAY,-7,GETDATE())     AND wrk.deleted_date is null	Param:@account_id-81-[Decimal]	IP Address:::1	User:
Timestamp:6/9/2020 5:16:59 PM	Severity:Information	Message:Account-GetAccountByCondition	Execute Time:0.046	SQL:     SELECT     acc.id,     acc.fingerprint_id,     acc.staff_id,     acc.staff_name,     acc.sex,     acc.division_id,     div.div_name as division_name,     acc.email,     acc.admin_flg,     acc.joined_date,     acc.resign_date,     acc.face_url,     acc.person_id,     acc.persisted_face_id,     acc.created_date,     acc.created_account_id,     acc.updated_date,     acc.updated_account_id,     acc.deleted_date,     acc.deleted_account_id     FROM account acc     LEFT JOIN fingerprint fp ON fp.id = acc.fingerprint_id AND (fp.deleted_date is null OR fp.deleted_date = '')     JOIN division div on acc.division_id = div.id AND div.company_id = @company_id AND div.deleted_date is null     WHERE (acc.deleted_date is null OR acc.deleted_date = '')     ORDER BY acc.division_id	Param:@company_id-1-[StringFixedLength]	IP Address:::1	User:
Timestamp:6/9/2020 5:16:59 PM	Severity:Information	Message:Account-GetAccountByCondition	Execute Time:0.050	SQL:     SELECT     acc.id,     acc.fingerprint_id,     acc.staff_id,     acc.staff_name,     acc.sex,     acc.division_id,     div.div_name as division_name,     acc.email,     acc.admin_flg,     acc.joined_date,     acc.resign_date,     acc.face_url,     acc.person_id,     acc.persisted_face_id,     acc.created_date,     acc.created_account_id,     acc.updated_date,     acc.updated_account_id,     acc.deleted_date,     acc.deleted_account_id     FROM account acc     LEFT JOIN fingerprint fp ON fp.id = acc.fingerprint_id AND (fp.deleted_date is null OR fp.deleted_date = '')     JOIN division div on acc.division_id = div.id AND div.company_id = @company_id AND div.deleted_date is null     WHERE (acc.deleted_date is null OR acc.deleted_date = '')     ORDER BY acc.division_id	Param:@company_id-1-[StringFixedLength]	IP Address:::1	User:
Timestamp:6/9/2020 5:16:59 PM	Severity:Information	Message:Division-GetGroupData	Execute Time:0.062	SQL:     SELECT  node.id AS group_id     ,(SELECT TOP 1 super_parent.id             FROM division super_parent             WHERE super_parent.div_range_from< node.div_range_from AND super_parent.div_range_to> node.div_range_to               AND super_parent.company_id = @company_id            ORDER BY super_parent.div_range_to-node.div_range_to ASC) AS super_group_id     ,COUNT(parent.div_name)-1 AS group_level     ,node.div_name AS group_name      ,node.admin_div_flg AS admin_div_flg     ,acc.staff_id AS responsible_person_staff_id     FROM division AS node INNER JOIN account acc ON node.responsible_staff_id = acc.id,             division AS parent     WHERE parent.deleted_date IS NULL            AND node.deleted_date IS NULL            AND acc.deleted_date IS NULL            AND (node.div_range_from BETWEEN parent.div_range_from AND parent.div_range_to)           AND parent.company_id = @company_id           AND node.company_id = @company_id     GROUP BY node.div_name, node.div_range_from, node.admin_div_flg, node.id, node.responsible_staff_id,acc.staff_id, node.div_range_to     ORDER BY node.div_range_from	Param:@company_id-1-[StringFixedLength]	IP Address:::1	User:
Timestamp:6/9/2020 5:17:01 PM	Severity:Information	Message:Account-GetAccountByCondition	Execute Time:0.049	SQL:     SELECT     acc.id,     acc.fingerprint_id,     acc.staff_id,     acc.staff_name,     acc.sex,     acc.division_id,     div.div_name as division_name,     acc.email,     acc.admin_flg,     acc.joined_date,     acc.resign_date,     acc.face_url,     acc.person_id,     acc.persisted_face_id,     acc.created_date,     acc.created_account_id,     acc.updated_date,     acc.updated_account_id,     acc.deleted_date,     acc.deleted_account_id     FROM account acc     LEFT JOIN fingerprint fp ON fp.id = acc.fingerprint_id AND (fp.deleted_date is null OR fp.deleted_date = '')     JOIN division div on acc.division_id = div.id AND div.company_id = @company_id AND div.deleted_date is null     WHERE (acc.deleted_date is null OR acc.deleted_date = '')     ORDER BY acc.division_id	Param:@company_id-1-[StringFixedLength]	IP Address:::1	User:
Timestamp:6/9/2020 5:17:01 PM	Severity:Information	Message:FingerPrint-GetFingerPrintList	Execute Time:0.047	SQL:     SELECT     FP.id     ,FP.finger_data     ,FP.salt     ,AC.staff_id     ,FP.created_date     ,FP.created_account_id     ,FP.updated_date     ,FP.updated_account_id     ,FP.deleted_date     ,FP.deleted_account_id     ,FP.company_id     FROM fingerprint FP LEFT JOIN account AC on AC.fingerprint_id = FP.id AND AC.deleted_date is null AND AC.division_id is not null     WHERE (FP.deleted_date is null or FP.deleted_date = '' ) AND       FP.company_id = @company_id	Param:@company_id-1-[StringFixedLength]	IP Address:::1	User:
Timestamp:6/9/2020 5:17:08 PM	Severity:Information	Message:Division-GetDivisionListIdAndName	Execute Time:0.046	SQL:     SELECT CONCAT( REPLICATE( '     ', (COUNT(parent.div_name) - 1) ), node.div_name) AS div_name     ,node.div_range_from     ,node.id as id     ,node.div_range_to     ,node.responsible_staff_id     ,node.admin_div_flg     ,node.description     ,node.company_id     ,node.created_date     ,node.created_account_id     ,node.updated_date     ,node.updated_account_id     ,node.deleted_date     ,node.deleted_account_id     ,0 as div_range_parent     ,null as modify_mode     ,0 as group_id     FROM division AS node,     division AS parent     WHERE (node.div_range_from BETWEEN parent.div_range_from AND parent.div_range_to)      AND (node.deleted_date is null      AND node.deleted_account_id is null)      AND node.company_id = @company_id     GROUP BY node.div_name     ,node.div_range_from     ,node.id     ,node.div_range_to     ,node.responsible_staff_id     ,node.admin_div_flg     ,node.description     ,node.company_id     ,node.created_date     ,node.created_account_id     ,node.updated_account_id     ,node.deleted_date     ,node.deleted_account_id     ,node.updated_date     ORDER BY node.div_range_from	Param:@company_id-1-[StringFixedLength]	IP Address:::1	User:
Timestamp:6/9/2020 5:18:47 PM	Severity:Information	Message:Account-GetMemberInfo	Execute Time:0.048	SQL:     SELECT     acc.id,     acc.fingerprint_id,     acc.staff_id,     acc.staff_name,     acc.email,     acc.sex,     acc.division_id,     acc.admin_flg,     acc.joined_date,     acc.resign_date,     acc.face_url,     acc.person_id,     acc.persisted_face_id,     acc.created_date,     acc.created_account_id,     acc.updated_date,     acc.updated_account_id,     acc.deleted_date,     acc.deleted_account_id,     cpn.admin_company_flg as company_admin_flg,     cpn.id as company_id     FROM account acc     INNER JOIN division div ON acc.division_id = div.id AND acc.deleted_date IS NULL AND div.deleted_date IS NULL     INNER JOIN company cpn ON cpn.id = div.company_id AND cpn.deleted_date IS NULL AND div.deleted_date IS NULL     WHERE        (acc.deleted_date is null or acc.deleted_date = '') AND         acc.email = @email AND         cpn.id = 1 AND ( cpn.valid_date IS NULL OR valid_date >= GETDATE())	Param:@email-bw.test.kanri@gmail.com-[AnsiString]	IP Address:::1	User:
Timestamp:6/9/2020 5:18:47 PM	Severity:Information	Message:Account-GetAccountByCondition	Execute Time:0.046	SQL:     SELECT     acc.id,     acc.fingerprint_id,     acc.staff_id,     acc.staff_name,     acc.sex,     acc.division_id,     div.div_name as division_name,     acc.email,     acc.admin_flg,     acc.joined_date,     acc.resign_date,     acc.face_url,     acc.person_id,     acc.persisted_face_id,     acc.created_date,     acc.created_account_id,     acc.updated_date,     acc.updated_account_id,     acc.deleted_date,     acc.deleted_account_id     FROM account acc     LEFT JOIN fingerprint fp ON fp.id = acc.fingerprint_id AND (fp.deleted_date is null OR fp.deleted_date = '')     JOIN division div on acc.division_id = div.id AND div.company_id = @company_id AND div.deleted_date is null     WHERE (acc.deleted_date is null OR acc.deleted_date = '')     ORDER BY acc.division_id	Param:@company_id-1-[StringFixedLength]	IP Address:::1	User:
Timestamp:6/9/2020 5:18:52 PM	Severity:Information	Message:WorkingtimeRecord-GetWorkTimeByAccount	Execute Time:0.044	SQL:     select     id     ,account_id     ,register_date     ,account_paid_holiday_id     ,expect_start_time     ,expect_end_time     ,device_start_time     ,device_end_time     ,actual_start_time     ,actual_end_time     ,rest_time     ,additional_rest_time     ,overtime_record_id     ,created_date     ,created_account_id     ,updated_date     ,updated_account_id     ,deleted_date     ,deleted_account_id      from workingtime_record WTR WHERE        (WTR.deleted_date is null or WTR.deleted_date = '') AND         account_id = @account_id AND         register_date = CAST(@datetime AS DATE)	Param:@account_id-81-[AnsiString],@datetime-6/9/2020 5:18:52 PM-[AnsiString]	IP Address:::1	User:
Timestamp:6/9/2020 5:18:52 PM	Severity:Information	Message:Announcement-GetAnnouncement	Execute Time:0.047	SQL:     SELECT act.id     ,act.title     ,act.description     ,act.created_date     ,act.created_account_id     ,act.updated_date     ,act.updated_account_id     ,act.deleted_date     ,act.deleted_account_id     ,act.post_date     ,act.draft_flg     ,acc.email AS email     ,act.company_id     FROM announcement act     LEFT JOIN account acc ON acc.id = act.updated_account_id     WHERE act.company_id = @company_id     ORDER BY CONVERT(datetime, act.updated_date ) DESC	Param:@company_id-1-[Decimal]	IP Address:::1	User:
Timestamp:6/9/2020 5:19:05 PM	Severity:Information	Message:Announcement-GetApproveWaiting	Execute Time:8.508	SQL:     DECLARE     @staff_check TABLE (      application_id INT      ,application_form_id INT      , check_sequence INT      )     INSERT INTO @staff_check     SELECT     conf.application_id      AS application_id     , conf.application_form_id AS application_form_id     , conf.check_sequence      AS check_sequence     FROM     confirmation conf     WHERE     (     conf.account_id    = @account_id OR       conf.account_id = 0     )     AND (conf.check_status       = 0 OR conf.check_status       = 3)     AND conf.deleted_date IS NULL     AND application_sequence    =     (     SELECT     MAX(application_sequence)     FROM     confirmation     WHERE     application_id = conf.application_id     )       SELECT     ISNULL(wkt.register_date,aph.application_datetime) AS register_date     , ISNULL(wkt.account_id,aph.account_id)              AS account_id     , tbl.application_form_id                            As application_form_id     , CASE     WHEN tbl.check_sequence = 1 AND tbl.application_form_id = 0     THEN 1     WHEN     (     SELECT     TOP 1 check_sequence     FROM     confirmation     WHERE     application_id = tbl.application_id     AND ( deleted_date IS NULL OR deleted_date    = '')     AND check_status = 0 OR check_status = 3     GROUP BY application_sequence,check_sequence     HAVING application_sequence  = MAX(application_sequence)     ORDER BY     check_sequence     )     = tbl.check_sequence     THEN     CASE     WHEN [dbo].[IsReject](tbl.application_id,tbl.application_form_id) = 0     THEN 2     END     ELSE 3     END       AS type_message     , acc.email AS email     FROM     @staff_check tbl     LEFT JOIN     workingtime_record wkt     ON     tbl.application_id          = wkt.id     AND tbl.application_form_id = 0     AND wkt.deleted_date IS NULL     LEFT JOIN     account_paid_holiday aph     ON     tbl.application_id          = aph.id     AND tbl.application_form_id = 2     AND aph.deleted_date IS NULL     LEFT JOIN     account acc     ON     acc.id = ISNULL(wkt.account_id,aph.account_id)     UNION ALL     SELECT     aph.application_datetime as register_date     , aph.account_id      AS account_id     , cf.application_form_id AS application_form_id     , '4' as type_message     , acc.email AS email     FROM     account_paid_holiday  aph inner join confirmation cf on aph.id = cf.application_id and cf.application_form_id = '2' and cf.check_status = '2'     LEFT JOIN account acc ON acc.id = cf.account_id     WHERE     aph.account_id    = @account_id and [dbo].[IsReject](aph.id,'2') = 1     and cf.confirmed_datetime>=  DATEADD(DAY,-7,GETDATE())     AND aph.deleted_date is null and cf.deleted_date is null      UNION ALL     SELECT     wrk.register_date as register_date     , wrk.account_id      AS account_id     , '0' AS application_form_id     , '4' as type_message     , acc.email AS email     FROM     workingtime_record  wrk     inner join(     SELECT  account_id , application_id,confirmed_datetime  FROM                 confirmation cf      WHERE                      cf.application_form_id  = '0'                     and cf.check_status         = '2'      AND  cf.deleted_date        is null       AND application_sequence    =           (                SELECT                     MAX(application_sequence)                FROM                     confirmation                WHERE                     application_id = cf.application_id           )      ) CT ON  wrk.id                      = CT.application_id     LEFT JOIN account acc ON acc.id = CT.account_id     WHERE     wrk.account_id    = @account_id and [dbo].[IsReject](wrk.id,'0') = 1     and CT.confirmed_datetime>= DATEADD(DAY,-7,GETDATE())     AND wrk.deleted_date is null	Param:@account_id-81-[Decimal]	IP Address:::1	User:
Timestamp:6/9/2020 5:20:39 PM	Severity:Information	Message:Account-GetAccountByCondition	Execute Time:0.057	SQL:     SELECT     acc.id,     acc.fingerprint_id,     acc.staff_id,     acc.staff_name,     acc.sex,     acc.division_id,     div.div_name as division_name,     acc.email,     acc.admin_flg,     acc.joined_date,     acc.resign_date,     acc.face_url,     acc.person_id,     acc.persisted_face_id,     acc.created_date,     acc.created_account_id,     acc.updated_date,     acc.updated_account_id,     acc.deleted_date,     acc.deleted_account_id     FROM account acc     LEFT JOIN fingerprint fp ON fp.id = acc.fingerprint_id AND (fp.deleted_date is null OR fp.deleted_date = '')     JOIN division div on acc.division_id = div.id AND div.company_id = @company_id AND div.deleted_date is null     WHERE (acc.deleted_date is null OR acc.deleted_date = '')     ORDER BY acc.division_id	Param:@company_id-1-[StringFixedLength]	IP Address:::1	User:
Timestamp:6/9/2020 5:20:39 PM	Severity:Information	Message:Account-GetAccountByCondition	Execute Time:0.047	SQL:     SELECT     acc.id,     acc.fingerprint_id,     acc.staff_id,     acc.staff_name,     acc.sex,     acc.division_id,     div.div_name as division_name,     acc.email,     acc.admin_flg,     acc.joined_date,     acc.resign_date,     acc.face_url,     acc.person_id,     acc.persisted_face_id,     acc.created_date,     acc.created_account_id,     acc.updated_date,     acc.updated_account_id,     acc.deleted_date,     acc.deleted_account_id     FROM account acc     LEFT JOIN fingerprint fp ON fp.id = acc.fingerprint_id AND (fp.deleted_date is null OR fp.deleted_date = '')     JOIN division div on acc.division_id = div.id AND div.company_id = @company_id AND div.deleted_date is null     WHERE (acc.deleted_date is null OR acc.deleted_date = '')     ORDER BY acc.division_id	Param:@company_id-1-[StringFixedLength]	IP Address:::1	User:
Timestamp:6/9/2020 5:20:39 PM	Severity:Information	Message:Division-GetGroupData	Execute Time:0.050	SQL:     SELECT  node.id AS group_id     ,(SELECT TOP 1 super_parent.id             FROM division super_parent             WHERE super_parent.div_range_from< node.div_range_from AND super_parent.div_range_to> node.div_range_to               AND super_parent.company_id = @company_id            ORDER BY super_parent.div_range_to-node.div_range_to ASC) AS super_group_id     ,COUNT(parent.div_name)-1 AS group_level     ,node.div_name AS group_name      ,node.admin_div_flg AS admin_div_flg     ,acc.staff_id AS responsible_person_staff_id     FROM division AS node INNER JOIN account acc ON node.responsible_staff_id = acc.id,             division AS parent     WHERE parent.deleted_date IS NULL            AND node.deleted_date IS NULL            AND acc.deleted_date IS NULL            AND (node.div_range_from BETWEEN parent.div_range_from AND parent.div_range_to)           AND parent.company_id = @company_id           AND node.company_id = @company_id     GROUP BY node.div_name, node.div_range_from, node.admin_div_flg, node.id, node.responsible_staff_id,acc.staff_id, node.div_range_to     ORDER BY node.div_range_from	Param:@company_id-1-[StringFixedLength]	IP Address:::1	User:
Timestamp:6/9/2020 5:20:41 PM	Severity:Information	Message:Account-GetAccountByCondition	Execute Time:0.056	SQL:     SELECT     acc.id,     acc.fingerprint_id,     acc.staff_id,     acc.staff_name,     acc.sex,     acc.division_id,     div.div_name as division_name,     acc.email,     acc.admin_flg,     acc.joined_date,     acc.resign_date,     acc.face_url,     acc.person_id,     acc.persisted_face_id,     acc.created_date,     acc.created_account_id,     acc.updated_date,     acc.updated_account_id,     acc.deleted_date,     acc.deleted_account_id     FROM account acc     LEFT JOIN fingerprint fp ON fp.id = acc.fingerprint_id AND (fp.deleted_date is null OR fp.deleted_date = '')     JOIN division div on acc.division_id = div.id AND div.company_id = @company_id AND div.deleted_date is null     WHERE (acc.deleted_date is null OR acc.deleted_date = '')     ORDER BY acc.division_id	Param:@company_id-1-[StringFixedLength]	IP Address:::1	User:
Timestamp:6/9/2020 5:20:42 PM	Severity:Information	Message:FingerPrint-GetFingerPrintList	Execute Time:0.063	SQL:     SELECT     FP.id     ,FP.finger_data     ,FP.salt     ,AC.staff_id     ,FP.created_date     ,FP.created_account_id     ,FP.updated_date     ,FP.updated_account_id     ,FP.deleted_date     ,FP.deleted_account_id     ,FP.company_id     FROM fingerprint FP LEFT JOIN account AC on AC.fingerprint_id = FP.id AND AC.deleted_date is null AND AC.division_id is not null     WHERE (FP.deleted_date is null or FP.deleted_date = '' ) AND       FP.company_id = @company_id	Param:@company_id-1-[StringFixedLength]	IP Address:::1	User:
Timestamp:6/9/2020 5:20:47 PM	Severity:Information	Message:Division-GetDivisionListIdAndName	Execute Time:0.046	SQL:     SELECT CONCAT( REPLICATE( '     ', (COUNT(parent.div_name) - 1) ), node.div_name) AS div_name     ,node.div_range_from     ,node.id as id     ,node.div_range_to     ,node.responsible_staff_id     ,node.admin_div_flg     ,node.description     ,node.company_id     ,node.created_date     ,node.created_account_id     ,node.updated_date     ,node.updated_account_id     ,node.deleted_date     ,node.deleted_account_id     ,0 as div_range_parent     ,null as modify_mode     ,0 as group_id     FROM division AS node,     division AS parent     WHERE (node.div_range_from BETWEEN parent.div_range_from AND parent.div_range_to)      AND (node.deleted_date is null      AND node.deleted_account_id is null)      AND node.company_id = @company_id     GROUP BY node.div_name     ,node.div_range_from     ,node.id     ,node.div_range_to     ,node.responsible_staff_id     ,node.admin_div_flg     ,node.description     ,node.company_id     ,node.created_date     ,node.created_account_id     ,node.updated_account_id     ,node.deleted_date     ,node.deleted_account_id     ,node.updated_date     ORDER BY node.div_range_from	Param:@company_id-1-[StringFixedLength]	IP Address:::1	User:
Timestamp:6/9/2020 5:21:52 PM	Severity:Information	Message:Company-GetCompany	Execute Time:0.046	SQL:     SELECT id     ,company_name     ,company_token     ,admin_company_flg     ,valid_date     ,description     ,created_date     ,created_account_id     ,updated_date     ,updated_account_id     ,deleted_date     ,deleted_account_id     ,domain     ,slack_flg     FROM company     WHERE deleted_date IS NULL AND       id = @id     ORDER BY id DESC	Param:@id-1-[AnsiString]	IP Address:::1	User:
Timestamp:6/9/2020 5:21:59 PM	Severity:Information	Message:Company-GetCompany	Execute Time:0.047	SQL:     SELECT id     ,company_name     ,company_token     ,admin_company_flg     ,valid_date     ,description     ,created_date     ,created_account_id     ,updated_date     ,updated_account_id     ,deleted_date     ,deleted_account_id     ,domain     ,slack_flg     FROM company     WHERE deleted_date IS NULL AND       company_token = @token     ORDER BY id DESC	Param:@token-4492f25946a2-[AnsiString]	IP Address:::1	User:
Timestamp:6/9/2020 5:22:02 PM	Severity:Information	Message:Account-Insert	Execute Time:0.058	SQL:     INSERT INTO account     (fingerprint_id     ,staff_id     ,email     ,admin_flg     ,sex     ,staff_name     ,division_id     ,joined_date     ,resign_date     ,face_url     ,person_id     ,persisted_face_id     ,created_date     ,created_account_id     ,updated_date     ,updated_account_id     ,deleted_date     ,deleted_account_id)     OUTPUT INSERTED.id     VALUES     (@fingerprint_id     ,@staff_id     ,@email     ,@admin_flg     ,@sex     ,@staff_name     ,@division_id     ,@joined_date     ,@resign_date     ,@face_url     ,@person_id     ,@persisted_face_id     ,@created_date     ,@created_account_id     ,@updated_date     ,@updated_account_id     ,@deleted_date     ,@deleted_account_id)	Param:@fingerprint_id-22-[Decimal],@staff_id-BRW2035-[StringFixedLength],@email-lamtest@gm.com-[StringFixedLength],@admin_flg-True-[Boolean],@sex-0-[StringFixedLength],@staff_name-Lam test-[StringFixedLength],@division_id-4-[Decimal],@joined_date-6/9/2020 5:21:59 PM-[DateTime],@resign_date-6/9/2020 5:21:59 PM-[DateTime],@face_url-https://i.ibb.co/0sqkSXP/image.png-[StringFixedLength],@person_id-3b740f9b-82cd-4a4b-ac77-4db1cf00e747-[StringFixedLength],@persisted_face_id-f55418bc-f8b6-45a6-b089-55a783a32e9f-[StringFixedLength],@created_date-6/9/2020 5:21:59 PM-[DateTime],@created_account_id-81-[Decimal],@updated_date-6/9/2020 5:21:59 PM-[DateTime],@updated_account_id-81-[Decimal],@deleted_date-null-[AnsiString],@deleted_account_id-null-[AnsiString]	IP Address:::1	User:
Timestamp:6/9/2020 5:22:02 PM	Severity:Information	Message:Account-GetAccountByCondition	Execute Time:0.047	SQL:     SELECT     acc.id,     acc.fingerprint_id,     acc.staff_id,     acc.staff_name,     acc.sex,     acc.division_id,     div.div_name as division_name,     acc.email,     acc.admin_flg,     acc.joined_date,     acc.resign_date,     acc.face_url,     acc.person_id,     acc.persisted_face_id,     acc.created_date,     acc.created_account_id,     acc.updated_date,     acc.updated_account_id,     acc.deleted_date,     acc.deleted_account_id     FROM account acc     LEFT JOIN fingerprint fp ON fp.id = acc.fingerprint_id AND (fp.deleted_date is null OR fp.deleted_date = '')     JOIN division div on acc.division_id = div.id AND div.company_id = @company_id AND div.deleted_date is null     WHERE (acc.deleted_date is null OR acc.deleted_date = '')     ORDER BY acc.division_id	Param:@company_id-1-[StringFixedLength]	IP Address:::1	User:
Timestamp:6/9/2020 5:22:02 PM	Severity:Information	Message:FingerPrint-GetFingerPrintList	Execute Time:0.047	SQL:     SELECT     FP.id     ,FP.finger_data     ,FP.salt     ,AC.staff_id     ,FP.created_date     ,FP.created_account_id     ,FP.updated_date     ,FP.updated_account_id     ,FP.deleted_date     ,FP.deleted_account_id     ,FP.company_id     FROM fingerprint FP LEFT JOIN account AC on AC.fingerprint_id = FP.id AND AC.deleted_date is null AND AC.division_id is not null     WHERE (FP.deleted_date is null or FP.deleted_date = '' ) AND       FP.company_id = @company_id	Param:@company_id-1-[StringFixedLength]	IP Address:::1	User:
Timestamp:6/9/2020 5:22:02 PM	Severity:Information	Message:Division-GetDivisionListIdAndName	Execute Time:0.061	SQL:     SELECT CONCAT( REPLICATE( '     ', (COUNT(parent.div_name) - 1) ), node.div_name) AS div_name     ,node.div_range_from     ,node.id as id     ,node.div_range_to     ,node.responsible_staff_id     ,node.admin_div_flg     ,node.description     ,node.company_id     ,node.created_date     ,node.created_account_id     ,node.updated_date     ,node.updated_account_id     ,node.deleted_date     ,node.deleted_account_id     ,0 as div_range_parent     ,null as modify_mode     ,0 as group_id     FROM division AS node,     division AS parent     WHERE (node.div_range_from BETWEEN parent.div_range_from AND parent.div_range_to)      AND (node.deleted_date is null      AND node.deleted_account_id is null)      AND node.company_id = @company_id     GROUP BY node.div_name     ,node.div_range_from     ,node.id     ,node.div_range_to     ,node.responsible_staff_id     ,node.admin_div_flg     ,node.description     ,node.company_id     ,node.created_date     ,node.created_account_id     ,node.updated_account_id     ,node.deleted_date     ,node.deleted_account_id     ,node.updated_date     ORDER BY node.div_range_from	Param:@company_id-1-[StringFixedLength]	IP Address:::1	User:
Timestamp:6/9/2020 5:22:02 PM	Severity:Information	Message:Account-GetAccountByCondition	Execute Time:0.047	SQL:     SELECT     acc.id,     acc.fingerprint_id,     acc.staff_id,     acc.staff_name,     acc.sex,     acc.division_id,     div.div_name as division_name,     acc.email,     acc.admin_flg,     acc.joined_date,     acc.resign_date,     acc.face_url,     acc.person_id,     acc.persisted_face_id,     acc.created_date,     acc.created_account_id,     acc.updated_date,     acc.updated_account_id,     acc.deleted_date,     acc.deleted_account_id     FROM account acc     LEFT JOIN fingerprint fp ON fp.id = acc.fingerprint_id AND (fp.deleted_date is null OR fp.deleted_date = '')     JOIN division div on acc.division_id = div.id AND div.company_id = @company_id AND div.deleted_date is null     WHERE (acc.deleted_date is null OR acc.deleted_date = '')     ORDER BY acc.division_id	Param:@company_id-1-[StringFixedLength]	IP Address:::1	User:
Timestamp:6/9/2020 5:22:02 PM	Severity:Information	Message:Account-GetAccountByCondition	Execute Time:0.050	SQL:     SELECT     acc.id,     acc.fingerprint_id,     acc.staff_id,     acc.staff_name,     acc.sex,     acc.division_id,     div.div_name as division_name,     acc.email,     acc.admin_flg,     acc.joined_date,     acc.resign_date,     acc.face_url,     acc.person_id,     acc.persisted_face_id,     acc.created_date,     acc.created_account_id,     acc.updated_date,     acc.updated_account_id,     acc.deleted_date,     acc.deleted_account_id     FROM account acc     LEFT JOIN fingerprint fp ON fp.id = acc.fingerprint_id AND (fp.deleted_date is null OR fp.deleted_date = '')     JOIN division div on acc.division_id = div.id AND div.company_id = @company_id AND div.deleted_date is null     WHERE (acc.deleted_date is null OR acc.deleted_date = '')     ORDER BY acc.division_id	Param:@company_id-1-[StringFixedLength]	IP Address:::1	User:
Timestamp:6/9/2020 5:22:02 PM	Severity:Information	Message:Division-GetGroupData	Execute Time:0.052	SQL:     SELECT  node.id AS group_id     ,(SELECT TOP 1 super_parent.id             FROM division super_parent             WHERE super_parent.div_range_from< node.div_range_from AND super_parent.div_range_to> node.div_range_to               AND super_parent.company_id = @company_id            ORDER BY super_parent.div_range_to-node.div_range_to ASC) AS super_group_id     ,COUNT(parent.div_name)-1 AS group_level     ,node.div_name AS group_name      ,node.admin_div_flg AS admin_div_flg     ,acc.staff_id AS responsible_person_staff_id     FROM division AS node INNER JOIN account acc ON node.responsible_staff_id = acc.id,             division AS parent     WHERE parent.deleted_date IS NULL            AND node.deleted_date IS NULL            AND acc.deleted_date IS NULL            AND (node.div_range_from BETWEEN parent.div_range_from AND parent.div_range_to)           AND parent.company_id = @company_id           AND node.company_id = @company_id     GROUP BY node.div_name, node.div_range_from, node.admin_div_flg, node.id, node.responsible_staff_id,acc.staff_id, node.div_range_to     ORDER BY node.div_range_from	Param:@company_id-1-[StringFixedLength]	IP Address:::1	User:
Timestamp:6/9/2020 5:22:03 PM	Severity:Information	Message:Account-GetAccountByCondition	Execute Time:0.047	SQL:     SELECT     acc.id,     acc.fingerprint_id,     acc.staff_id,     acc.staff_name,     acc.sex,     acc.division_id,     div.div_name as division_name,     acc.email,     acc.admin_flg,     acc.joined_date,     acc.resign_date,     acc.face_url,     acc.person_id,     acc.persisted_face_id,     acc.created_date,     acc.created_account_id,     acc.updated_date,     acc.updated_account_id,     acc.deleted_date,     acc.deleted_account_id     FROM account acc     LEFT JOIN fingerprint fp ON fp.id = acc.fingerprint_id AND (fp.deleted_date is null OR fp.deleted_date = '')     JOIN division div on acc.division_id = div.id AND div.company_id = @company_id AND div.deleted_date is null     WHERE (acc.deleted_date is null OR acc.deleted_date = '')     ORDER BY acc.division_id	Param:@company_id-1-[StringFixedLength]	IP Address:::1	User:
Timestamp:6/9/2020 5:22:03 PM	Severity:Information	Message:FingerPrint-GetFingerPrintList	Execute Time:0.048	SQL:     SELECT     FP.id     ,FP.finger_data     ,FP.salt     ,AC.staff_id     ,FP.created_date     ,FP.created_account_id     ,FP.updated_date     ,FP.updated_account_id     ,FP.deleted_date     ,FP.deleted_account_id     ,FP.company_id     FROM fingerprint FP LEFT JOIN account AC on AC.fingerprint_id = FP.id AND AC.deleted_date is null AND AC.division_id is not null     WHERE (FP.deleted_date is null or FP.deleted_date = '' ) AND       FP.company_id = @company_id	Param:@company_id-1-[StringFixedLength]	IP Address:::1	User:
Timestamp:6/9/2020 5:22:03 PM	Severity:Information	Message:Division-GetDivisionListIdAndName	Execute Time:0.045	SQL:     SELECT CONCAT( REPLICATE( '     ', (COUNT(parent.div_name) - 1) ), node.div_name) AS div_name     ,node.div_range_from     ,node.id as id     ,node.div_range_to     ,node.responsible_staff_id     ,node.admin_div_flg     ,node.description     ,node.company_id     ,node.created_date     ,node.created_account_id     ,node.updated_date     ,node.updated_account_id     ,node.deleted_date     ,node.deleted_account_id     ,0 as div_range_parent     ,null as modify_mode     ,0 as group_id     FROM division AS node,     division AS parent     WHERE (node.div_range_from BETWEEN parent.div_range_from AND parent.div_range_to)      AND (node.deleted_date is null      AND node.deleted_account_id is null)      AND node.company_id = @company_id     GROUP BY node.div_name     ,node.div_range_from     ,node.id     ,node.div_range_to     ,node.responsible_staff_id     ,node.admin_div_flg     ,node.description     ,node.company_id     ,node.created_date     ,node.created_account_id     ,node.updated_account_id     ,node.deleted_date     ,node.deleted_account_id     ,node.updated_date     ORDER BY node.div_range_from	Param:@company_id-1-[StringFixedLength]	IP Address:::1	User:
