Timestamp:4/23/2020 9:58:13 AM	Severity:Information	Message:Account-GetMemberInfo	Execute Time:0.652	SQL:     SELECT     id,     fingerprint_id,     staff_id,     staff_name,     email,     sex,     division_id,     admin_flg,     joined_date,     resign_date,     created_date,     created_account_id,     updated_date,     updated_account_id,     deleted_date,     deleted_account_id     FROM account WHERE        (deleted_date is null or deleted_date = '') AND         email = @email	Param:@email-bw.test.kanri@gmail.com-[AnsiString]	IP Address:::1	User:
Timestamp:4/23/2020 9:58:17 AM	Severity:Information	Message:WorkingtimeRecord-GetRowdataById	Execute Time:0.065	SQL:     select     id     ,account_id     ,register_date     ,account_paid_holiday_id     ,expect_start_time     ,expect_end_time     ,device_start_time     ,device_end_time     ,actual_start_time     ,actual_end_time     ,rest_time     ,additional_rest_time     ,overtime_record_id     ,created_date     ,created_account_id     ,updated_date     ,updated_account_id     ,deleted_date     ,deleted_account_id      from workingtime_record WTR WHERE        (WTR.deleted_date is null or WTR.deleted_date = '') AND         account_id = @account_id AND         register_date = CAST(@datetime AS DATE)	Param:@account_id-81-[AnsiString],@datetime-4/23/2020 9:58:17 AM-[AnsiString]	IP Address:::1	User:
Timestamp:4/23/2020 9:58:17 AM	Severity:Information	Message:Announcement-GetAnnouncementInfo	Execute Time:0.066	SQL:     SELECT act.id     ,act.title     ,act.description     ,act.created_date     ,act.created_account_id     ,act.updated_date     ,act.updated_account_id     ,act.deleted_date     ,act.deleted_account_id     ,act.post_date     ,act.draft_flg     ,acc.email AS email     FROM announcement act     LEFT JOIN account acc ON acc.id = act.updated_account_id      ORDER BY CONVERT(datetime, act.updated_date ) DESC	Param:	IP Address:::1	User:
Timestamp:4/23/2020 9:58:26 AM	Severity:Information	Message:Announcement-GetApproveWaitingInfo	Execute Time:6.646	SQL:     DECLARE     @staff_check TABLE (      application_id INT      ,application_form_id INT      , check_sequence INT      )     INSERT INTO @staff_check     SELECT     conf.application_id      AS application_id     , conf.application_form_id AS application_form_id     , conf.check_sequence      AS check_sequence     FROM     confirmation conf     WHERE     (     conf.account_id    = @account_id OR       conf.account_id = 0     )     AND (conf.check_status       = 0 OR conf.check_status       = 3)     AND conf.deleted_date IS NULL     AND application_sequence    =     (     SELECT     MAX(application_sequence)     FROM     confirmation     WHERE     application_id = conf.application_id     )       SELECT     ISNULL(wkt.register_date,aph.application_datetime) AS register_date     , ISNULL(wkt.account_id,aph.account_id)              AS account_id     , tbl.application_form_id                            As application_form_id     , CASE     WHEN tbl.check_sequence = 1 AND tbl.application_form_id = 0     THEN 1     WHEN     (     SELECT     TOP 1 check_sequence     FROM     confirmation     WHERE     application_id = tbl.application_id     AND ( deleted_date IS NULL OR deleted_date    = '')     AND check_status = 0 OR check_status = 3     GROUP BY application_sequence,check_sequence     HAVING application_sequence  = MAX(application_sequence)     ORDER BY     check_sequence     )     = tbl.check_sequence     THEN     CASE     WHEN [dbo].[IsReject](tbl.application_id,tbl.application_form_id) = 0     THEN 2     END     ELSE 3     END       AS type_message     , acc.email AS email     FROM     @staff_check tbl     LEFT JOIN     workingtime_record wkt     ON     tbl.application_id          = wkt.id     AND tbl.application_form_id = 0     AND wkt.deleted_date IS NULL     LEFT JOIN     account_paid_holiday aph     ON     tbl.application_id          = aph.id     AND tbl.application_form_id = 2     AND aph.deleted_date IS NULL     LEFT JOIN     account acc     ON     acc.id = ISNULL(wkt.account_id,aph.account_id) AND acc.deleted_date is NULL     UNION ALL     SELECT     aph.application_datetime as register_date     , aph.account_id      AS account_id     , cf.application_form_id AS application_form_id     , '4' as type_message     , acc.email AS email     FROM     account_paid_holiday  aph inner join confirmation cf on aph.id = cf.application_id and cf.application_form_id = '2' and cf.check_status = '2'     LEFT JOIN account acc ON acc.id = cf.account_id  AND acc.deleted_date is NULL     WHERE     aph.account_id    = @account_id and [dbo].[IsReject](aph.id,'2') = 1     and cf.confirmed_datetime>=  DATEADD(DAY,-7,GETDATE())     AND aph.deleted_date is null and cf.deleted_date is null      UNION ALL     SELECT     wrk.register_date as register_date     , wrk.account_id      AS account_id     , '0' AS application_form_id     , '4' as type_message     , acc.email AS email     FROM     workingtime_record  wrk     inner join(     SELECT  account_id , application_id,confirmed_datetime  FROM                 confirmation cf      WHERE                      cf.application_form_id  = '0'                     and cf.check_status         = '2'      AND  cf.deleted_date        is null       AND application_sequence    =           (                SELECT                     MAX(application_sequence)                FROM                     confirmation                WHERE                     application_id = cf.application_id           )      ) CT ON  wrk.id                      = CT.application_id     LEFT JOIN account acc ON acc.id = CT.account_id  AND acc.deleted_date is NULL     WHERE     wrk.account_id    = @account_id and [dbo].[IsReject](wrk.id,'0') = 1     and CT.confirmed_datetime>= DATEADD(DAY,-7,GETDATE())     AND wrk.deleted_date is null	Param:@account_id-81-[Decimal]	IP Address:::1	User:
Timestamp:4/23/2020 9:58:27 AM	Severity:Information	Message:Account-GetAccountList	Execute Time:0.066	SQL:     SELECT     acc.id,     acc.fingerprint_id,     acc.staff_id,     acc.staff_name,     acc.sex,     acc.division_id,     div.div_name as division_name,     acc.email,     acc.admin_flg,     acc.joined_date,     acc.resign_date,     acc.created_date,     acc.created_account_id,     acc.updated_date,     acc.updated_account_id,     acc.deleted_date,     acc.deleted_account_id     FROM account acc     LEFT JOIN fingerprint fp ON fp.id = acc.fingerprint_id AND (fp.deleted_date is null OR fp.deleted_date = '')     JOIN division div on acc.division_id = div.id AND div.company_id = @company_id AND div.deleted_date is null     WHERE (acc.deleted_date is null OR acc.deleted_date = '')	Param:@company_id-1-[StringFixedLength]	IP Address:::1	User:
Timestamp:4/23/2020 9:58:31 AM	Severity:Information	Message:Account-GetAccountList	Execute Time:0.067	SQL:     SELECT     acc.id,     acc.fingerprint_id,     acc.staff_id,     acc.staff_name,     acc.sex,     acc.division_id,     div.div_name as division_name,     acc.email,     acc.admin_flg,     acc.joined_date,     acc.resign_date,     acc.created_date,     acc.created_account_id,     acc.updated_date,     acc.updated_account_id,     acc.deleted_date,     acc.deleted_account_id     FROM account acc     LEFT JOIN fingerprint fp ON fp.id = acc.fingerprint_id AND (fp.deleted_date is null OR fp.deleted_date = '')     JOIN division div on acc.division_id = div.id AND div.company_id = @company_id AND div.deleted_date is null     WHERE (acc.deleted_date is null OR acc.deleted_date = '')	Param:@company_id-1-[StringFixedLength]	IP Address:::1	User:
Timestamp:4/23/2020 9:58:32 AM	Severity:Information	Message:FingerPrint-GetFingerPrintList	Execute Time:0.067	SQL:     SELECT     FP.id     ,FP.finger_data     ,FP.salt     ,AC.staff_id     ,FP.created_date     ,FP.created_account_id     ,FP.updated_date     ,FP.updated_account_id     ,FP.deleted_date     ,FP.deleted_account_id     ,FP.company_id     FROM fingerprint FP LEFT JOIN account AC on AC.fingerprint_id = FP.id AND AC.deleted_date is null AND AC.division_id is not null     WHERE (FP.deleted_date is null or FP.deleted_date = '' ) AND       FP.company_id = @company_id	Param:@company_id-1-[StringFixedLength]	IP Address:::1	User:
Timestamp:4/23/2020 9:58:32 AM	Severity:Information	Message:Division-GetDivisionListIdAndName	Execute Time:0.065	SQL:     SELECT CONCAT( REPLICATE( '     ', (COUNT(parent.div_name) - 1) ), node.div_name) AS division_name     ,node.div_range_from     ,node.id as division_id     ,node.div_range_to     ,node.responsible_staff_id     ,node.admin_div_flg     ,node.description     ,node.company_id     ,node.created_date     ,node.created_account_id     ,node.updated_date     ,node.updated_account_id     ,node.deleted_date     ,node.deleted_account_id     FROM division AS node,     division AS parent     WHERE (node.div_range_from BETWEEN parent.div_range_from AND parent.div_range_to)      AND (node.deleted_date is null      AND node.deleted_account_id is null)      AND node.company_id = @company_id     GROUP BY node.div_name     ,node.div_range_from     ,node.id     ,node.div_range_to     ,node.responsible_staff_id     ,node.admin_div_flg     ,node.description     ,node.company_id     ,node.created_date     ,node.created_account_id     ,node.updated_account_id     ,node.deleted_date     ,node.deleted_account_id     ,node.updated_date     ORDER BY node.div_range_from	Param:@company_id-1-[StringFixedLength]	IP Address:::1	User:
Timestamp:4/23/2020 11:37:09 AM	Severity:Information	Message:Account-GetMemberInfo	Execute Time:0.551	SQL:     SELECT     id,     fingerprint_id,     staff_id,     staff_name,     email,     sex,     division_id,     admin_flg,     joined_date,     resign_date,     created_date,     created_account_id,     updated_date,     updated_account_id,     deleted_date,     deleted_account_id     FROM account WHERE        (deleted_date is null or deleted_date = '') AND         email = @email	Param:@email-bw.test.kanri@gmail.com-[AnsiString]	IP Address:::1	User:
Timestamp:4/23/2020 11:37:12 AM	Severity:Information	Message:WorkingtimeRecord-GetRowdataById	Execute Time:0.161	SQL:     select     id     ,account_id     ,register_date     ,account_paid_holiday_id     ,expect_start_time     ,expect_end_time     ,device_start_time     ,device_end_time     ,actual_start_time     ,actual_end_time     ,rest_time     ,additional_rest_time     ,overtime_record_id     ,created_date     ,created_account_id     ,updated_date     ,updated_account_id     ,deleted_date     ,deleted_account_id      from workingtime_record WTR WHERE        (WTR.deleted_date is null or WTR.deleted_date = '') AND         account_id = @account_id AND         register_date = CAST(@datetime AS DATE)	Param:@account_id-81-[AnsiString],@datetime-4/23/2020 11:37:12 AM-[AnsiString]	IP Address:::1	User:
Timestamp:4/23/2020 11:37:13 AM	Severity:Information	Message:Announcement-GetAnnouncementInfo	Execute Time:0.220	SQL:     SELECT act.id     ,act.title     ,act.description     ,act.created_date     ,act.created_account_id     ,act.updated_date     ,act.updated_account_id     ,act.deleted_date     ,act.deleted_account_id     ,act.post_date     ,act.draft_flg     ,acc.email AS email     FROM announcement act     LEFT JOIN account acc ON acc.id = act.updated_account_id      ORDER BY CONVERT(datetime, act.updated_date ) DESC	Param:	IP Address:::1	User:
Timestamp:4/23/2020 11:37:21 AM	Severity:Information	Message:Announcement-GetApproveWaitingInfo	Execute Time:7.141	SQL:     DECLARE     @staff_check TABLE (      application_id INT      ,application_form_id INT      , check_sequence INT      )     INSERT INTO @staff_check     SELECT     conf.application_id      AS application_id     , conf.application_form_id AS application_form_id     , conf.check_sequence      AS check_sequence     FROM     confirmation conf     WHERE     (     conf.account_id    = @account_id OR       conf.account_id = 0     )     AND (conf.check_status       = 0 OR conf.check_status       = 3)     AND conf.deleted_date IS NULL     AND application_sequence    =     (     SELECT     MAX(application_sequence)     FROM     confirmation     WHERE     application_id = conf.application_id     )       SELECT     ISNULL(wkt.register_date,aph.application_datetime) AS register_date     , ISNULL(wkt.account_id,aph.account_id)              AS account_id     , tbl.application_form_id                            As application_form_id     , CASE     WHEN tbl.check_sequence = 1 AND tbl.application_form_id = 0     THEN 1     WHEN     (     SELECT     TOP 1 check_sequence     FROM     confirmation     WHERE     application_id = tbl.application_id     AND ( deleted_date IS NULL OR deleted_date    = '')     AND check_status = 0 OR check_status = 3     GROUP BY application_sequence,check_sequence     HAVING application_sequence  = MAX(application_sequence)     ORDER BY     check_sequence     )     = tbl.check_sequence     THEN     CASE     WHEN [dbo].[IsReject](tbl.application_id,tbl.application_form_id) = 0     THEN 2     END     ELSE 3     END       AS type_message     , acc.email AS email     FROM     @staff_check tbl     LEFT JOIN     workingtime_record wkt     ON     tbl.application_id          = wkt.id     AND tbl.application_form_id = 0     AND wkt.deleted_date IS NULL     LEFT JOIN     account_paid_holiday aph     ON     tbl.application_id          = aph.id     AND tbl.application_form_id = 2     AND aph.deleted_date IS NULL     LEFT JOIN     account acc     ON     acc.id = ISNULL(wkt.account_id,aph.account_id) AND acc.deleted_date is NULL     UNION ALL     SELECT     aph.application_datetime as register_date     , aph.account_id      AS account_id     , cf.application_form_id AS application_form_id     , '4' as type_message     , acc.email AS email     FROM     account_paid_holiday  aph inner join confirmation cf on aph.id = cf.application_id and cf.application_form_id = '2' and cf.check_status = '2'     LEFT JOIN account acc ON acc.id = cf.account_id  AND acc.deleted_date is NULL     WHERE     aph.account_id    = @account_id and [dbo].[IsReject](aph.id,'2') = 1     and cf.confirmed_datetime>=  DATEADD(DAY,-7,GETDATE())     AND aph.deleted_date is null and cf.deleted_date is null      UNION ALL     SELECT     wrk.register_date as register_date     , wrk.account_id      AS account_id     , '0' AS application_form_id     , '4' as type_message     , acc.email AS email     FROM     workingtime_record  wrk     inner join(     SELECT  account_id , application_id,confirmed_datetime  FROM                 confirmation cf      WHERE                      cf.application_form_id  = '0'                     and cf.check_status         = '2'      AND  cf.deleted_date        is null       AND application_sequence    =           (                SELECT                     MAX(application_sequence)                FROM                     confirmation                WHERE                     application_id = cf.application_id           )      ) CT ON  wrk.id                      = CT.application_id     LEFT JOIN account acc ON acc.id = CT.account_id  AND acc.deleted_date is NULL     WHERE     wrk.account_id    = @account_id and [dbo].[IsReject](wrk.id,'0') = 1     and CT.confirmed_datetime>= DATEADD(DAY,-7,GETDATE())     AND wrk.deleted_date is null	Param:@account_id-81-[Decimal]	IP Address:::1	User:
Timestamp:4/23/2020 11:37:25 AM	Severity:Information	Message:Account-GetAccountList	Execute Time:0.071	SQL:     SELECT     acc.id,     acc.fingerprint_id,     acc.staff_id,     acc.staff_name,     acc.sex,     acc.division_id,     div.div_name as division_name,     acc.email,     acc.admin_flg,     acc.joined_date,     acc.resign_date,     acc.created_date,     acc.created_account_id,     acc.updated_date,     acc.updated_account_id,     acc.deleted_date,     acc.deleted_account_id     FROM account acc     LEFT JOIN fingerprint fp ON fp.id = acc.fingerprint_id AND (fp.deleted_date is null OR fp.deleted_date = '')     JOIN division div on acc.division_id = div.id AND div.company_id = @company_id AND div.deleted_date is null     WHERE (acc.deleted_date is null OR acc.deleted_date = '')	Param:@company_id-1-[StringFixedLength]	IP Address:::1	User:
Timestamp:4/23/2020 11:37:28 AM	Severity:Information	Message:Account-GetAccountList	Execute Time:0.070	SQL:     SELECT     acc.id,     acc.fingerprint_id,     acc.staff_id,     acc.staff_name,     acc.sex,     acc.division_id,     div.div_name as division_name,     acc.email,     acc.admin_flg,     acc.joined_date,     acc.resign_date,     acc.created_date,     acc.created_account_id,     acc.updated_date,     acc.updated_account_id,     acc.deleted_date,     acc.deleted_account_id     FROM account acc     LEFT JOIN fingerprint fp ON fp.id = acc.fingerprint_id AND (fp.deleted_date is null OR fp.deleted_date = '')     JOIN division div on acc.division_id = div.id AND div.company_id = @company_id AND div.deleted_date is null     WHERE (acc.deleted_date is null OR acc.deleted_date = '')	Param:@company_id-1-[StringFixedLength]	IP Address:::1	User:
Timestamp:4/23/2020 11:37:29 AM	Severity:Information	Message:FingerPrint-GetFingerPrintList	Execute Time:0.118	SQL:     SELECT     FP.id     ,FP.finger_data     ,FP.salt     ,AC.staff_id     ,FP.created_date     ,FP.created_account_id     ,FP.updated_date     ,FP.updated_account_id     ,FP.deleted_date     ,FP.deleted_account_id     ,FP.company_id     FROM fingerprint FP LEFT JOIN account AC on AC.fingerprint_id = FP.id AND AC.deleted_date is null AND AC.division_id is not null     WHERE (FP.deleted_date is null or FP.deleted_date = '' ) AND       FP.company_id = @company_id	Param:@company_id-1-[StringFixedLength]	IP Address:::1	User:
Timestamp:4/23/2020 11:37:29 AM	Severity:Information	Message:Division-GetDivisionListIdAndName	Execute Time:0.084	SQL:     SELECT CONCAT( REPLICATE( '     ', (COUNT(parent.div_name) - 1) ), node.div_name) AS division_name     ,node.div_range_from     ,node.id as division_id     ,node.div_range_to     ,node.responsible_staff_id     ,node.admin_div_flg     ,node.description     ,node.company_id     ,node.created_date     ,node.created_account_id     ,node.updated_date     ,node.updated_account_id     ,node.deleted_date     ,node.deleted_account_id     FROM division AS node,     division AS parent     WHERE (node.div_range_from BETWEEN parent.div_range_from AND parent.div_range_to)      AND (node.deleted_date is null      AND node.deleted_account_id is null)      AND node.company_id = @company_id     GROUP BY node.div_name     ,node.div_range_from     ,node.id     ,node.div_range_to     ,node.responsible_staff_id     ,node.admin_div_flg     ,node.description     ,node.company_id     ,node.created_date     ,node.created_account_id     ,node.updated_account_id     ,node.deleted_date     ,node.deleted_account_id     ,node.updated_date     ORDER BY node.div_range_from	Param:@company_id-1-[StringFixedLength]	IP Address:::1	User:
