Timestamp:8/13/2020 4:30:55 PM	Severity:Error	Message:Company-GetCompany	Execute Time:	SQL:     SELECT id     ,company_name     ,company_token     ,admin_company_flg     ,valid_date     ,description     ,created_date     ,created_account_id     ,updated_date     ,updated_account_id     ,deleted_date     ,deleted_account_id     ,domain     ,slack_flg  ,start_working_time  ,end_working_time  ,start_lunch_time  ,end_lunch_time  ,uncounted_time  ,slack_token  ,slack_team_id  ,slack_team_domain  ,attendance_channel  ,announcement_channel  ,attendance_command  ,company_logo  ,time_zone_id  ,paid_holiday_monthly_flg  ,slack_webhook_url  ,post_message_username  ,login_by  ,face_flg  ,face_folder  ,min_workingtime     FROM company     WHERE deleted_date IS NULL AND       id = @id     ORDER BY id DESC	Param:@id-1-[AnsiString]	IP Address:::1	User:	Exception Message:A connection was successfully established with the server, but then an error occurred during the login process. (provider: SSL Provider, error: 0 - An existing connection was forcibly closed by the remote host.)
Timestamp:8/13/2020 4:33:30 PM	Severity:Information	Message:Company-GetCompany	Execute Time:3.615	SQL:     SELECT id     ,company_name     ,company_token     ,admin_company_flg     ,valid_date     ,description     ,created_date     ,created_account_id     ,updated_date     ,updated_account_id     ,deleted_date     ,deleted_account_id     ,domain     ,slack_flg  ,start_working_time  ,end_working_time  ,start_lunch_time  ,end_lunch_time  ,uncounted_time  ,slack_token  ,slack_team_id  ,slack_team_domain  ,attendance_channel  ,announcement_channel  ,attendance_command  ,company_logo  ,time_zone_id  ,paid_holiday_monthly_flg  ,slack_webhook_url  ,post_message_username  ,login_by  ,face_flg  ,face_folder  ,min_workingtime     FROM company     WHERE deleted_date IS NULL AND       id = @id     ORDER BY id DESC	Param:@id-1-[AnsiString]	IP Address:::1	User:
Timestamp:8/13/2020 4:33:30 PM	Severity:Information	Message:Company-GetCompany	Execute Time:3.803	SQL:     SELECT id     ,company_name     ,company_token     ,admin_company_flg     ,valid_date     ,description     ,created_date     ,created_account_id     ,updated_date     ,updated_account_id     ,deleted_date     ,deleted_account_id     ,domain     ,slack_flg  ,start_working_time  ,end_working_time  ,start_lunch_time  ,end_lunch_time  ,uncounted_time  ,slack_token  ,slack_team_id  ,slack_team_domain  ,attendance_channel  ,announcement_channel  ,attendance_command  ,company_logo  ,time_zone_id  ,paid_holiday_monthly_flg  ,slack_webhook_url  ,post_message_username  ,login_by  ,face_flg  ,face_folder  ,min_workingtime     FROM company     WHERE deleted_date IS NULL AND       id = @id     ORDER BY id DESC	Param:@id-1-[AnsiString]	IP Address:::1	User:
Timestamp:8/13/2020 4:33:58 PM	Severity:Information	Message:Account-GetMemberInfo	Execute Time:0.098	SQL:     SELECT     acc.id,     acc.fingerprint_id,     acc.staff_id,     acc.staff_name,     acc.email,     acc.sex,     acc.division_id,     acc.admin_flg,     acc.joined_date,     acc.resign_date,     acc.face_image,     acc.person_id,     acc.persisted_face_id,     acc.created_date,     acc.created_account_id,     acc.updated_date,     acc.updated_account_id,     acc.deleted_date,     acc.deleted_account_id,  acc.language,     cpn.admin_company_flg as company_admin_flg,     cpn.id as company_id,     cpn.company_token as company_token,    cpn.time_zone_id,    null as password     FROM account acc     INNER JOIN division div ON acc.division_id = div.id AND acc.deleted_date IS NULL AND div.deleted_date IS NULL     INNER JOIN company cpn ON cpn.id = div.company_id AND cpn.deleted_date IS NULL AND div.deleted_date IS NULL     WHERE        (acc.deleted_date is null or acc.deleted_date = '') AND         acc.email = @email AND         cpn.id = 1 AND ( cpn.valid_date IS NULL OR valid_date >= GETDATE())	Param:@email-bw.test.kanri@gmail.com-[AnsiString]	IP Address:::1	User:
Timestamp:8/13/2020 4:33:58 PM	Severity:Information	Message:Account-GetAccountByCondition	Execute Time:0.059	SQL:     SELECT     acc.id,     acc.fingerprint_id,     acc.staff_id,     acc.staff_name,     acc.sex,     acc.division_id,     div.div_name as division_name,     acc.email,     acc.admin_flg,     acc.joined_date,     acc.resign_date,     acc.face_image,     acc.person_id,     acc.persisted_face_id,     acc.created_date,     acc.created_account_id,     acc.updated_date,     acc.updated_account_id,     acc.deleted_date,     acc.deleted_account_id,    acc.language,    null as password     FROM account acc     LEFT JOIN fingerprint fp ON fp.id = acc.fingerprint_id AND (fp.deleted_date is null OR fp.deleted_date = '')     JOIN division div on acc.division_id = div.id AND div.company_id = @company_id AND div.deleted_date is null     WHERE (acc.deleted_date is null OR acc.deleted_date = '')     ORDER BY acc.division_id	Param:@company_id-1-[StringFixedLength]	IP Address:::1	User:
Timestamp:8/13/2020 4:33:59 PM	Severity:Information	Message:Account-GetDataById	Execute Time:0.056	SQL:    SELECT    acc.id,    acc.fingerprint_id,    acc.staff_id,    acc.staff_name,    acc.email,    acc.sex,    acc.division_id,    acc.admin_flg,    acc.joined_date,    acc.resign_date,    acc.created_date,    acc.created_account_id,    acc.updated_date,    acc.updated_account_id,    acc.deleted_date,    acc.deleted_account_id,    acc.face_image,    acc.person_id,    acc.persisted_face_id,    acc.language,    cpn.admin_company_flg as company_admin_flg,    cpn.id as company_id,    cpn.company_token as company_token,    cpn.time_zone_id,     null as password    FROM account acc    INNER JOIN division div ON acc.division_id = div.id AND acc.deleted_date IS NULL AND div.deleted_date IS NULL    INNER JOIN company cpn ON cpn.id = div.company_id AND cpn.deleted_date IS NULL AND div.deleted_date IS NULL    WHERE    (acc.deleted_date is null or acc.deleted_date = '') AND         acc.id = @id	Param:@id-81-[AnsiString]	IP Address:::1	User:
Timestamp:8/13/2020 4:33:59 PM	Severity:Information	Message:WorkingtimeRecord-GetWorkTimeByAccount	Execute Time:0.039	SQL:     select     id     ,account_id     ,register_date     ,account_paid_holiday_id     ,expect_start_time     ,expect_end_time     ,device_start_time     ,device_end_time     ,actual_start_time     ,actual_end_time     ,rest_time     ,additional_rest_time     ,overtime_record_id     ,created_date     ,created_account_id     ,updated_date     ,updated_account_id     ,deleted_date     ,deleted_account_id      from workingtime_record WTR WHERE        (WTR.deleted_date is null or WTR.deleted_date = '') AND         account_id = @account_id AND         register_date = CAST(@datetime AS DATE)	Param:@account_id-81-[AnsiString],@datetime-8/13/2020 4:33:59 PM-[AnsiString]	IP Address:::1	User:
Timestamp:8/13/2020 4:33:59 PM	Severity:Information	Message:Announcement-GetAnnouncement	Execute Time:0.141	SQL:     SELECT act.id     ,act.title     ,act.description     ,act.created_date     ,act.created_account_id     ,act.updated_date     ,act.updated_account_id     ,act.deleted_date     ,act.deleted_account_id     ,act.post_date     ,act.draft_flg     ,acc.email AS email     ,act.company_id     FROM announcement act     LEFT JOIN account acc ON acc.id = act.updated_account_id     WHERE act.company_id = @company_id     ORDER BY CONVERT(datetime, act.updated_date ) DESC	Param:@company_id-1-[Decimal]	IP Address:::1	User:
Timestamp:8/13/2020 4:34:00 PM	Severity:Information	Message:Company-GetCompany	Execute Time:0.061	SQL:     SELECT id     ,company_name     ,company_token     ,admin_company_flg     ,valid_date     ,description     ,created_date     ,created_account_id     ,updated_date     ,updated_account_id     ,deleted_date     ,deleted_account_id     ,domain     ,slack_flg  ,start_working_time  ,end_working_time  ,start_lunch_time  ,end_lunch_time  ,uncounted_time  ,slack_token  ,slack_team_id  ,slack_team_domain  ,attendance_channel  ,announcement_channel  ,attendance_command  ,company_logo  ,time_zone_id  ,paid_holiday_monthly_flg  ,slack_webhook_url  ,post_message_username  ,login_by  ,face_flg  ,face_folder  ,min_workingtime     FROM company     WHERE deleted_date IS NULL AND       id = @id     ORDER BY id DESC	Param:@id-1-[AnsiString]	IP Address:::1	User:
Timestamp:8/13/2020 4:34:06 PM	Severity:Information	Message:Announcement-GetApproveWaiting	Execute Time:4.379	SQL:     DECLARE     @staff_check TABLE (     application_id INT     ,application_form_id INT     , check_sequence INT     )     INSERT INTO @staff_check     SELECT     conf.application_id      AS application_id     , conf.application_form_id AS application_form_id     , conf.check_sequence      AS check_sequence     FROM     confirmation conf     LEFT JOIN account acc ON conf.created_account_id = acc.id     INNER JOIN division dv ON dv.id = acc.division_id     INNER JOIN company cpn ON cpn.id = dv.company_id     WHERE     (     conf.account_id    = @account_id OR       conf.account_id = 0     )     AND (conf.check_status       = 0 OR conf.check_status       = 3)     AND conf.deleted_date IS NULL     AND application_sequence    =     (     SELECT     MAX(application_sequence)     FROM     confirmation     WHERE     application_id = conf.application_id     )     AND acc.deleted_date IS NULL     AND dv.deleted_date IS NULL     AND cpn.deleted_date IS NULL AND       cpn.id = @company_id    SELECT   ISNULL(wkt.register_date,aph.application_datetime) AS register_date   , ISNULL(wkt.account_id,aph.account_id)              AS account_id   , tbl.application_form_id                            As application_form_id   , CASE   WHEN tbl.check_sequence = 1 AND tbl.application_form_id = 0   THEN 1   WHEN   (   SELECT   TOP 1 check_sequence   FROM   confirmation   WHERE   application_id = tbl.application_id   AND ( deleted_date IS NULL OR deleted_date    = '')   AND check_status = 0 OR check_status = 3   GROUP BY application_sequence,check_sequence   HAVING application_sequence  = MAX(application_sequence)   ORDER BY   check_sequence   )   = tbl.check_sequence   THEN   CASE   WHEN [dbo].[IsReject](tbl.application_id,tbl.application_form_id) = 0   THEN 2   END   ELSE 3   END       AS type_message   , acc.email AS email   FROM   @staff_check tbl   LEFT JOIN   workingtime_record wkt   ON   tbl.application_id          = wkt.id   AND tbl.application_form_id = 0   AND wkt.deleted_date IS NULL   LEFT JOIN   account_paid_holiday aph   ON   tbl.application_id          = aph.id   AND tbl.application_form_id = 2   AND aph.deleted_date IS NULL   LEFT JOIN   account acc   ON   acc.id = ISNULL(wkt.account_id,aph.account_id)      UNION ALL   SELECT   aph.application_datetime as register_date   , aph.account_id      AS account_id   , cf.application_form_id AS application_form_id   , '4' as type_message   , acc.email AS email   FROM   account_paid_holiday  aph inner join confirmation cf on aph.id = cf.application_id and cf.application_form_id = '2' and cf.check_status = '2'   LEFT JOIN account acc ON acc.id = cf.account_id    INNER JOIN account acc1 ON aph.account_id = acc1.id     INNER JOIN division dv ON dv.id = acc1.division_id     INNER JOIN company cpn ON cpn.id = dv.company_id   WHERE   aph.account_id    = @account_id and [dbo].[IsReject](aph.id,'2') = 1   and cf.confirmed_datetime>=  DATEADD(DAY,-7,GETDATE())     AND aph.deleted_date is null and cf.deleted_date is null     AND acc1.deleted_date IS NULL     AND dv.deleted_date IS NULL     AND cpn.deleted_date IS NULL AND       cpn.id = @company_id           UNION ALL     SELECT     wrk.register_date as register_date     , wrk.account_id      AS account_id     , '0' AS application_form_id     , '4' as type_message     , acc.email AS email     FROM     workingtime_record  wrk     inner join(     SELECT  account_id , application_id,confirmed_datetime  FROM                 confirmation cf      WHERE                      cf.application_form_id  = '0'                     and cf.check_status         = '2'      AND  cf.deleted_date        is null       AND application_sequence    =           (                SELECT                     MAX(application_sequence)                FROM                     confirmation                WHERE                     application_id = cf.application_id           )      ) CT ON  wrk.id                      = CT.application_id     LEFT JOIN account acc ON acc.id = CT.account_id     INNER JOIN account acc1 ON wrk.account_id = acc1.id     INNER JOIN division dv ON dv.id = acc1.division_id     INNER JOIN company cpn ON cpn.id = dv.company_id     WHERE     wrk.account_id    = @account_id and [dbo].[IsReject](wrk.id,'0') = 1     and CT.confirmed_datetime>= DATEADD(DAY,-7,GETDATE())     AND wrk.deleted_date is null     AND acc1.deleted_date IS NULL     AND dv.deleted_date IS NULL     AND cpn.deleted_date IS NULL AND       cpn.id = @company_id	Param:@account_id-81-[Decimal],@company_id-1-[AnsiString]	IP Address:::1	User:
Timestamp:8/13/2020 4:34:07 PM	Severity:Information	Message:Account-GetAccountByCondition	Execute Time:0.053	SQL:     SELECT     acc.id,     acc.fingerprint_id,     acc.staff_id,     acc.staff_name,     acc.sex,     acc.division_id,     div.div_name as division_name,     acc.email,     acc.admin_flg,     acc.joined_date,     acc.resign_date,     acc.face_image,     acc.person_id,     acc.persisted_face_id,     acc.created_date,     acc.created_account_id,     acc.updated_date,     acc.updated_account_id,     acc.deleted_date,     acc.deleted_account_id,    acc.language,    null as password     FROM account acc     LEFT JOIN fingerprint fp ON fp.id = acc.fingerprint_id AND (fp.deleted_date is null OR fp.deleted_date = '')     JOIN division div on acc.division_id = div.id AND div.company_id = @company_id AND div.deleted_date is null     WHERE (acc.deleted_date is null OR acc.deleted_date = '')     ORDER BY acc.division_id	Param:@company_id-1-[StringFixedLength]	IP Address:::1	User:
Timestamp:8/13/2020 4:34:07 PM	Severity:Information	Message:Account-GetAccountByCondition	Execute Time:0.061	SQL:     SELECT     acc.id,     acc.fingerprint_id,     acc.staff_id,     acc.staff_name,     acc.sex,     acc.division_id,     div.div_name as division_name,     acc.email,     acc.admin_flg,     acc.joined_date,     acc.resign_date,     acc.face_image,     acc.person_id,     acc.persisted_face_id,     acc.created_date,     acc.created_account_id,     acc.updated_date,     acc.updated_account_id,     acc.deleted_date,     acc.deleted_account_id,    acc.language,    null as password     FROM account acc     LEFT JOIN fingerprint fp ON fp.id = acc.fingerprint_id AND (fp.deleted_date is null OR fp.deleted_date = '')     JOIN division div on acc.division_id = div.id AND div.company_id = @company_id AND div.deleted_date is null     WHERE (acc.deleted_date is null OR acc.deleted_date = '')     ORDER BY acc.division_id	Param:@company_id-1-[StringFixedLength]	IP Address:::1	User:
Timestamp:8/13/2020 4:34:07 PM	Severity:Information	Message:Division-GetGroupData	Execute Time:0.046	SQL:     SELECT  node.id AS group_id     ,(SELECT TOP 1 super_parent.id             FROM division super_parent             WHERE super_parent.div_range_from< node.div_range_from AND super_parent.div_range_to> node.div_range_to               AND super_parent.company_id = @company_id            ORDER BY super_parent.div_range_to-node.div_range_to ASC) AS super_group_id     ,COUNT(parent.div_name)-1 AS group_level     ,node.div_name AS group_name      ,node.admin_div_flg AS admin_div_flg     ,acc.staff_id AS responsible_person_staff_id     FROM division AS node INNER JOIN account acc ON node.responsible_staff_id = acc.id,             division AS parent     WHERE parent.deleted_date IS NULL            AND node.deleted_date IS NULL            AND acc.deleted_date IS NULL            AND (node.div_range_from BETWEEN parent.div_range_from AND parent.div_range_to)           AND parent.company_id = @company_id           AND node.company_id = @company_id     GROUP BY node.div_name, node.div_range_from, node.admin_div_flg, node.id, node.responsible_staff_id,acc.staff_id, node.div_range_to     ORDER BY node.div_range_from	Param:@company_id-1-[StringFixedLength]	IP Address:::1	User:
Timestamp:8/13/2020 4:34:07 PM	Severity:Information	Message:Company-GetCompany	Execute Time:0.053	SQL:     SELECT id     ,company_name     ,company_token     ,admin_company_flg     ,valid_date     ,description     ,created_date     ,created_account_id     ,updated_date     ,updated_account_id     ,deleted_date     ,deleted_account_id     ,domain     ,slack_flg  ,start_working_time  ,end_working_time  ,start_lunch_time  ,end_lunch_time  ,uncounted_time  ,slack_token  ,slack_team_id  ,slack_team_domain  ,attendance_channel  ,announcement_channel  ,attendance_command  ,company_logo  ,time_zone_id  ,paid_holiday_monthly_flg  ,slack_webhook_url  ,post_message_username  ,login_by  ,face_flg  ,face_folder  ,min_workingtime     FROM company     WHERE deleted_date IS NULL AND       id = @id     ORDER BY id DESC	Param:@id-1-[AnsiString]	IP Address:::1	User:
Timestamp:8/13/2020 4:34:07 PM	Severity:Information	Message:Account-GetAccountByCondition	Execute Time:0.063	SQL:     SELECT     acc.id,     acc.fingerprint_id,     acc.staff_id,     acc.staff_name,     acc.sex,     acc.division_id,     div.div_name as division_name,     acc.email,     acc.admin_flg,     acc.joined_date,     acc.resign_date,     acc.face_image,     acc.person_id,     acc.persisted_face_id,     acc.created_date,     acc.created_account_id,     acc.updated_date,     acc.updated_account_id,     acc.deleted_date,     acc.deleted_account_id,    acc.language,    null as password     FROM account acc     LEFT JOIN fingerprint fp ON fp.id = acc.fingerprint_id AND (fp.deleted_date is null OR fp.deleted_date = '')     JOIN division div on acc.division_id = div.id AND div.company_id = @company_id AND div.deleted_date is null     WHERE (acc.deleted_date is null OR acc.deleted_date = '')     ORDER BY acc.division_id	Param:@company_id-1-[StringFixedLength]	IP Address:::1	User:
Timestamp:8/13/2020 4:34:10 PM	Severity:Information	Message:FingerPrint-GetFingerPrintList	Execute Time:0.047	SQL:     SELECT     FP.id     ,FP.finger_data     ,FP.salt     ,AC.staff_id     ,FP.created_date     ,FP.created_account_id     ,FP.updated_date     ,FP.updated_account_id     ,FP.deleted_date     ,FP.deleted_account_id     ,FP.company_id     FROM fingerprint FP LEFT JOIN account AC on AC.fingerprint_id = FP.id AND AC.deleted_date is null AND AC.division_id is not null     WHERE (FP.deleted_date is null or FP.deleted_date = '' ) AND       FP.company_id = @company_id	Param:@company_id-1-[StringFixedLength]	IP Address:::1	User:
Timestamp:8/13/2020 4:34:10 PM	Severity:Information	Message:Division-GetDivisionByCompanyId	Execute Time:0.055	SQL:     SELECT  node.id AS id     ,node.div_range_from AS div_range_from     ,node.div_range_to AS div_range_to  ,node.div_code AS div_code     ,(SELECT TOP 1 super_parent.div_name     FROM division super_parent     WHERE super_parent.div_range_from< node.div_range_from AND super_parent.div_range_to> node.div_range_to    AND super_parent.company_id = @company_id AND super_parent.deleted_date IS NULL    ORDER BY super_parent.div_range_to ASC) AS div_parent_name    ,CONCAT( REPLICATE( '     ', (COUNT(parent.div_name) - 1) ), node.div_name) AS div_name    FROM division AS node,    division AS parent    WHERE parent.deleted_date IS NULL    AND node.deleted_date IS NULL    AND (node.div_range_from BETWEEN parent.div_range_from AND parent.div_range_to)    AND parent.company_id = @company_id    AND node.company_id = @company_id    GROUP BY node.div_name, node.div_range_from, node.admin_div_flg, node.id, node.responsible_staff_id,node.div_range_to,node.div_code    ORDER BY node.div_range_from	Param:@company_id-1-[Decimal]	IP Address:::1	User:
Timestamp:8/13/2020 4:35:02 PM	Severity:Information	Message:Company-GetCompany	Execute Time:0.033	SQL:     SELECT id     ,company_name     ,company_token     ,admin_company_flg     ,valid_date     ,description     ,created_date     ,created_account_id     ,updated_date     ,updated_account_id     ,deleted_date     ,deleted_account_id     ,domain     ,slack_flg  ,start_working_time  ,end_working_time  ,start_lunch_time  ,end_lunch_time  ,uncounted_time  ,slack_token  ,slack_team_id  ,slack_team_domain  ,attendance_channel  ,announcement_channel  ,attendance_command  ,company_logo  ,time_zone_id  ,paid_holiday_monthly_flg  ,slack_webhook_url  ,post_message_username  ,login_by  ,face_flg  ,face_folder  ,min_workingtime     FROM company     WHERE deleted_date IS NULL AND       company_token = @token     ORDER BY id DESC	Param:@token-4492f25946a2-[AnsiString]	IP Address:::1	User:
Timestamp:8/13/2020 4:35:12 PM	Severity:Information	Message:Account-GetDataById	Execute Time:0.046	SQL:    SELECT    acc.id,    acc.fingerprint_id,    acc.staff_id,    acc.staff_name,    acc.email,    acc.sex,    acc.division_id,    acc.admin_flg,    acc.joined_date,    acc.resign_date,    acc.created_date,    acc.created_account_id,    acc.updated_date,    acc.updated_account_id,    acc.deleted_date,    acc.deleted_account_id,    acc.face_image,    acc.person_id,    acc.persisted_face_id,    acc.language,    cpn.admin_company_flg as company_admin_flg,    cpn.id as company_id,    cpn.company_token as company_token,    cpn.time_zone_id,     null as password    FROM account acc    INNER JOIN division div ON acc.division_id = div.id AND acc.deleted_date IS NULL AND div.deleted_date IS NULL    INNER JOIN company cpn ON cpn.id = div.company_id AND cpn.deleted_date IS NULL AND div.deleted_date IS NULL    WHERE    (acc.deleted_date is null or acc.deleted_date = '') AND         acc.id = @id	Param:@id-133-[AnsiString]	IP Address:::1	User:
Timestamp:8/13/2020 4:35:46 PM	Severity:Information	Message:Company-GetCompany	Execute Time:0.035	SQL:     SELECT id     ,company_name     ,company_token     ,admin_company_flg     ,valid_date     ,description     ,created_date     ,created_account_id     ,updated_date     ,updated_account_id     ,deleted_date     ,deleted_account_id     ,domain     ,slack_flg  ,start_working_time  ,end_working_time  ,start_lunch_time  ,end_lunch_time  ,uncounted_time  ,slack_token  ,slack_team_id  ,slack_team_domain  ,attendance_channel  ,announcement_channel  ,attendance_command  ,company_logo  ,time_zone_id  ,paid_holiday_monthly_flg  ,slack_webhook_url  ,post_message_username  ,login_by  ,face_flg  ,face_folder  ,min_workingtime     FROM company     WHERE deleted_date IS NULL AND       company_token = @token     ORDER BY id DESC	Param:@token-4492f25946a2-[AnsiString]	IP Address:::1	User:
Timestamp:8/13/2020 4:35:50 PM	Severity:Information	Message:Account-GetDataById	Execute Time:0.036	SQL:    SELECT    acc.id,    acc.fingerprint_id,    acc.staff_id,    acc.staff_name,    acc.email,    acc.sex,    acc.division_id,    acc.admin_flg,    acc.joined_date,    acc.resign_date,    acc.created_date,    acc.created_account_id,    acc.updated_date,    acc.updated_account_id,    acc.deleted_date,    acc.deleted_account_id,    acc.face_image,    acc.person_id,    acc.persisted_face_id,    acc.language,    cpn.admin_company_flg as company_admin_flg,    cpn.id as company_id,    cpn.company_token as company_token,    cpn.time_zone_id,     null as password    FROM account acc    INNER JOIN division div ON acc.division_id = div.id AND acc.deleted_date IS NULL AND div.deleted_date IS NULL    INNER JOIN company cpn ON cpn.id = div.company_id AND cpn.deleted_date IS NULL AND div.deleted_date IS NULL    WHERE    (acc.deleted_date is null or acc.deleted_date = '') AND         acc.id = @id	Param:@id-133-[AnsiString]	IP Address:::1	User:
Timestamp:8/13/2020 4:35:58 PM	Severity:Information	Message:Account-Update	Execute Time:0.056	SQL:     UPDATE account     SET fingerprint_id = @fingerprint_id     ,admin_flg = @admin_flg     ,updated_date = @updated_date     ,updated_account_id = @updated_account_id     ,deleted_date = @deleted_date     ,deleted_account_id = @deleted_account_id     ,staff_id = @staff_id     ,staff_name = @staff_name     ,email = @email     ,sex = @sex     ,division_id = @division_id     ,face_image = @face_image     ,person_id = @person_id     ,persisted_face_id = @persisted_face_id       WHERE     id = @id	Param:@fingerprint_id-19-[Decimal],@admin_flg-False-[Boolean],@updated_date-8/13/2020 4:35:50 PM-[DateTime],@updated_account_id-81-[Decimal],@deleted_date-null-[AnsiString],@deleted_account_id-null-[AnsiString],@staff_id-BRW3002-[StringFixedLength],@staff_name-test no img2-[StringFixedLength],@email-noimg2@gm.com-[StringFixedLength],@sex-0-[StringFixedLength],@division_id-59-[Decimal],@face_image-null-[AnsiString],@person_id-97a44f28-fef8-4b9e-8ecf-ba8e2a34e526-[StringFixedLength],@persisted_face_id-null-[AnsiString],@id-133-[Decimal]	IP Address:::1	User:
