Timestamp:7/31/2020 3:09:21 PM	Severity:Error	Message:Account-GetFaceImgFromAccount	Execute Time:	SQL:   SELECT   acc.id,   acc.staff_id,   acc.staff_name,     acc.face_image    FROM account acc   WHERE acc.face_image is not null	Param:	IP Address:::1	User:	Exception Message:Cannot open server 'am-briswell' requested by the login. Client with IP address '27.78.141.72' is not allowed to access the server.  To enable access, use the Windows Azure Management Portal or run sp_set_firewall_rule on the master database to create a firewall rule for this IP address or address range.  It may take up to five minutes for this change to take effect.
Timestamp:7/31/2020 3:10:50 PM	Severity:Information	Message:Account-GetFaceImgFromAccount	Execute Time:0.540	SQL:   SELECT   acc.id,   acc.staff_id,   acc.staff_name,     acc.face_image    FROM account acc   WHERE acc.face_image is not null	Param:	IP Address:::1	User:
Timestamp:7/31/2020 3:17:26 PM	Severity:Information	Message:Account-GetFaceImgFromAccount	Execute Time:0.297	SQL:   SELECT   acc.id,   acc.staff_id,   acc.staff_name,     acc.face_image    FROM account acc   WHERE acc.face_image is not null	Param:	IP Address:::1	User:
Timestamp:7/31/2020 3:19:07 PM	Severity:Information	Message:Account-GetFaceImgFromAccount	Execute Time:0.268	SQL:   SELECT   acc.id,   acc.staff_id,   acc.staff_name,     acc.face_image    FROM account acc   WHERE acc.face_image is not null	Param:	IP Address:::1	User:
Timestamp:7/31/2020 3:20:34 PM	Severity:Information	Message:Account-GetFaceImgFromAccount	Execute Time:0.046	SQL:   SELECT   acc.id,   acc.staff_id,   acc.staff_name,     acc.face_image    FROM account acc   WHERE acc.face_image is not null	Param:	IP Address:::1	User:
